^D:\PROGRAMMING\CARDBOARD\SRC\ENGINE\PCH.CPP
/c /I..\ENET\INCLUDE /I..\INCLUDE /I..\ENGINE /I..\FPSGAME /I..\SHARED /Zi /nologo /W3 /WX- /diagnostics:classic /Od /D WIN32 /D _DEBUG /D _WINDOWS /D _USING_V110_SDK71_ /D _MBCS /Gm- /EHa /RTCs /MTd /GS /fp:fast /Zc:wchar_t /Zc:forScope /Zc:inline /Yc"engine.h" /Fp".\DEBUG64\ENGINE.PCH" /Fo".\DEBUG64\PCH1.OBJ" /Fd".\DEBUG64\VC141.PDB" /Gd /TP D:\PROGRAMMING\CARDBOARD\SRC\ENGINE\PCH.CPP
^D:\PROGRAMMING\CARDBOARD\SRC\SHARED\PCH.CPP
/c /I..\ENET\INCLUDE /I..\INCLUDE /I..\ENGINE /I..\FPSGAME /I..\SHARED /Zi /nologo /W3 /WX- /diagnostics:classic /Od /D WIN32 /D _DEBUG /D _WINDOWS /D _USING_V110_SDK71_ /D _MBCS /Gm- /EHa /RTCs /MTd /GS /fp:fast /Zc:wchar_t /Zc:forScope /Zc:inline /Yc"cube.h" /Fp".\DEBUG64\CUBE.PCH" /Fo".\DEBUG64\\" /Fd".\DEBUG64\VC141.PDB" /Gd /TP D:\PROGRAMMING\CARDBOARD\SRC\SHARED\PCH.CPP
^D:\PROGRAMMING\CARDBOARD\SRC\FPSGAME\PCH.CPP
/c /I..\ENET\INCLUDE /I..\INCLUDE /I..\ENGINE /I..\FPSGAME /I..\SHARED /Zi /nologo /W3 /WX- /diagnostics:classic /Od /D WIN32 /D _DEBUG /D _WINDOWS /D _USING_V110_SDK71_ /D _MBCS /Gm- /EHa /RTCs /MTd /GS /fp:fast /Zc:wchar_t /Zc:forScope /Zc:inline /Yc"game.h" /Fp".\DEBUG64\GAME.PCH" /Fo".\DEBUG64\PCH2.OBJ" /Fd".\DEBUG64\VC141.PDB" /Gd /TP D:\PROGRAMMING\CARDBOARD\SRC\FPSGAME\PCH.CPP
^D:\PROGRAMMING\CARDBOARD\SRC\CARDSTOCK\CARDSTOCK.CPP
/c /I..\ENET\INCLUDE /I..\INCLUDE /I..\ENGINE /I..\FPSGAME /I..\SHARED /Zi /nologo /W3 /WX- /diagnostics:classic /Od /D WIN32 /D _DEBUG /D _WINDOWS /D _USING_V110_SDK71_ /D _MBCS /Gm- /EHa /RTCs /MTd /GS /fp:fast /Zc:wchar_t /Zc:forScope /Zc:inline /Fo".\DEBUG64\\" /Fd".\DEBUG64\VC141.PDB" /Gd /TP D:\PROGRAMMING\CARDBOARD\SRC\CARDSTOCK\CARDSTOCK.CPP
^D:\PROGRAMMING\CARDBOARD\SRC\ENGINE\BLEND.CPP
/c /I..\ENET\INCLUDE /I..\INCLUDE /I..\ENGINE /I..\FPSGAME /I..\SHARED /Zi /nologo /W3 /WX- /diagnostics:classic /Od /D WIN32 /D _DEBUG /D _WINDOWS /D _USING_V110_SDK71_ /D _MBCS /Gm- /EHa /RTCs /MTd /GS /fp:fast /Zc:wchar_t /Zc:forScope /Zc:inline /Fo".\DEBUG64\\" /Fd".\DEBUG64\VC141.PDB" /Gd /TP D:\PROGRAMMING\CARDBOARD\SRC\ENGINE\BLEND.CPP
^D:\PROGRAMMING\CARDBOARD\SRC\ENGINE\CUBELOADER.CPP
/c /I..\ENET\INCLUDE /I..\INCLUDE /I..\ENGINE /I..\FPSGAME /I..\SHARED /Zi /nologo /W3 /WX- /diagnostics:classic /Od /D WIN32 /D _DEBUG /D _WINDOWS /D _USING_V110_SDK71_ /D _MBCS /Gm- /EHa /RTCs /MTd /GS /fp:fast /Zc:wchar_t /Zc:forScope /Zc:inline /Fo".\DEBUG64\\" /Fd".\DEBUG64\VC141.PDB" /Gd /TP D:\PROGRAMMING\CARDBOARD\SRC\ENGINE\CUBELOADER.CPP
^D:\PROGRAMMING\CARDBOARD\SRC\ENGINE\LIGHTMAP.CPP
/c /I..\ENET\INCLUDE /I..\INCLUDE /I..\ENGINE /I..\FPSGAME /I..\SHARED /Zi /nologo /W3 /WX- /diagnostics:classic /Od /D WIN32 /D _DEBUG /D _WINDOWS /D _USING_V110_SDK71_ /D _MBCS /Gm- /EHa /RTCs /MTd /GS /fp:fast /Zc:wchar_t /Zc:forScope /Zc:inline /Fo".\DEBUG64\\" /Fd".\DEBUG64\VC141.PDB" /Gd /TP D:\PROGRAMMING\CARDBOARD\SRC\ENGINE\LIGHTMAP.CPP
^D:\PROGRAMMING\CARDBOARD\SRC\ENGINE\NORMAL.CPP
/c /I..\ENET\INCLUDE /I..\INCLUDE /I..\ENGINE /I..\FPSGAME /I..\SHARED /Zi /nologo /W3 /WX- /diagnostics:classic /Od /D WIN32 /D _DEBUG /D _WINDOWS /D _USING_V110_SDK71_ /D _MBCS /Gm- /EHa /RTCs /MTd /GS /fp:fast /Zc:wchar_t /Zc:forScope /Zc:inline /Fo".\DEBUG64\\" /Fd".\DEBUG64\VC141.PDB" /Gd /TP D:\PROGRAMMING\CARDBOARD\SRC\ENGINE\NORMAL.CPP
^D:\PROGRAMMING\CARDBOARD\SRC\ENGINE\OCTA.CPP
/c /I..\ENET\INCLUDE /I..\INCLUDE /I..\ENGINE /I..\FPSGAME /I..\SHARED /Zi /nologo /W3 /WX- /diagnostics:classic /Od /D WIN32 /D _DEBUG /D _WINDOWS /D _USING_V110_SDK71_ /D _MBCS /Gm- /EHa /RTCs /MTd /GS /fp:fast /Zc:wchar_t /Zc:forScope /Zc:inline /Fo".\DEBUG64\\" /Fd".\DEBUG64\VC141.PDB" /Gd /TP D:\PROGRAMMING\CARDBOARD\SRC\ENGINE\OCTA.CPP
^D:\PROGRAMMING\CARDBOARD\SRC\ENGINE\OCTAEDIT.CPP
/c /I..\ENET\INCLUDE /I..\INCLUDE /I..\ENGINE /I..\FPSGAME /I..\SHARED /Zi /nologo /W3 /WX- /diagnostics:classic /Od /D WIN32 /D _DEBUG /D _WINDOWS /D _USING_V110_SDK71_ /D _MBCS /Gm- /EHa /RTCs /MTd /GS /fp:fast /Zc:wchar_t /Zc:forScope /Zc:inline /Fo".\DEBUG64\\" /Fd".\DEBUG64\VC141.PDB" /Gd /TP D:\PROGRAMMING\CARDBOARD\SRC\ENGINE\OCTAEDIT.CPP
^D:\PROGRAMMING\CARDBOARD\SRC\ENGINE\OCTARENDER.CPP
/c /I..\ENET\INCLUDE /I..\INCLUDE /I..\ENGINE /I..\FPSGAME /I..\SHARED /Zi /nologo /W3 /WX- /diagnostics:classic /Od /D WIN32 /D _DEBUG /D _WINDOWS /D _USING_V110_SDK71_ /D _MBCS /Gm- /EHa /RTCs /MTd /GS /fp:fast /Zc:wchar_t /Zc:forScope /Zc:inline /Fo".\DEBUG64\\" /Fd".\DEBUG64\VC141.PDB" /Gd /TP D:\PROGRAMMING\CARDBOARD\SRC\ENGINE\OCTARENDER.CPP
^D:\PROGRAMMING\CARDBOARD\SRC\ENGINE\PHYSICS.CPP
/c /I..\ENET\INCLUDE /I..\INCLUDE /I..\ENGINE /I..\FPSGAME /I..\SHARED /Zi /nologo /W3 /WX- /diagnostics:classic /Od /D WIN32 /D _DEBUG /D _WINDOWS /D _USING_V110_SDK71_ /D _MBCS /Gm- /EHa /RTCs /MTd /GS /fp:fast /Zc:wchar_t /Zc:forScope /Zc:inline /Fo".\DEBUG64\\" /Fd".\DEBUG64\VC141.PDB" /Gd /TP D:\PROGRAMMING\CARDBOARD\SRC\ENGINE\PHYSICS.CPP
^D:\PROGRAMMING\CARDBOARD\SRC\ENGINE\PVS.CPP
/c /I..\ENET\INCLUDE /I..\INCLUDE /I..\ENGINE /I..\FPSGAME /I..\SHARED /Zi /nologo /W3 /WX- /diagnostics:classic /Od /D WIN32 /D _DEBUG /D _WINDOWS /D _USING_V110_SDK71_ /D _MBCS /Gm- /EHa /RTCs /MTd /GS /fp:fast /Zc:wchar_t /Zc:forScope /Zc:inline /Fo".\DEBUG64\\" /Fd".\DEBUG64\VC141.PDB" /Gd /TP D:\PROGRAMMING\CARDBOARD\SRC\ENGINE\PVS.CPP
^D:\PROGRAMMING\CARDBOARD\SRC\ENGINE\WORLD.CPP
/c /I..\ENET\INCLUDE /I..\INCLUDE /I..\ENGINE /I..\FPSGAME /I..\SHARED /Zi /nologo /W3 /WX- /diagnostics:classic /Od /D WIN32 /D _DEBUG /D _WINDOWS /D _USING_V110_SDK71_ /D _MBCS /Gm- /EHa /RTCs /MTd /GS /fp:fast /Zc:wchar_t /Zc:forScope /Zc:inline /Fo".\DEBUG64\\" /Fd".\DEBUG64\VC141.PDB" /Gd /TP D:\PROGRAMMING\CARDBOARD\SRC\ENGINE\WORLD.CPP
^D:\PROGRAMMING\CARDBOARD\SRC\ENGINE\WORLDIO.CPP
/c /I..\ENET\INCLUDE /I..\INCLUDE /I..\ENGINE /I..\FPSGAME /I..\SHARED /Zi /nologo /W3 /WX- /diagnostics:classic /Od /D WIN32 /D _DEBUG /D _WINDOWS /D _USING_V110_SDK71_ /D _MBCS /Gm- /EHa /RTCs /MTd /GS /fp:fast /Zc:wchar_t /Zc:forScope /Zc:inline /Fo".\DEBUG64\\" /Fd".\DEBUG64\VC141.PDB" /Gd /TP D:\PROGRAMMING\CARDBOARD\SRC\ENGINE\WORLDIO.CPP
^D:\PROGRAMMING\CARDBOARD\SRC\ENGINE\CLIENT.CPP
/c /I..\ENET\INCLUDE /I..\INCLUDE /I..\ENGINE /I..\FPSGAME /I..\SHARED /Zi /nologo /W3 /WX- /diagnostics:classic /Od /D WIN32 /D _DEBUG /D _WINDOWS /D _USING_V110_SDK71_ /D _MBCS /Gm- /EHa /RTCs /MTd /GS /fp:fast /Zc:wchar_t /Zc:forScope /Zc:inline /Fo".\DEBUG64\\" /Fd".\DEBUG64\VC141.PDB" /Gd /TP D:\PROGRAMMING\CARDBOARD\SRC\ENGINE\CLIENT.CPP
^D:\PROGRAMMING\CARDBOARD\SRC\ENGINE\SERVER.CPP
/c /I..\ENET\INCLUDE /I..\INCLUDE /I..\ENGINE /I..\FPSGAME /I..\SHARED /Zi /nologo /W3 /WX- /diagnostics:classic /Od /D WIN32 /D _DEBUG /D _WINDOWS /D _USING_V110_SDK71_ /D _MBCS /Gm- /EHa /RTCs /MTd /GS /fp:fast /Zc:wchar_t /Zc:forScope /Zc:inline /Fo".\DEBUG64\\" /Fd".\DEBUG64\VC141.PDB" /Gd /TP D:\PROGRAMMING\CARDBOARD\SRC\ENGINE\SERVER.CPP
^D:\PROGRAMMING\CARDBOARD\SRC\ENGINE\SERVERBROWSER.CPP
/c /I..\ENET\INCLUDE /I..\INCLUDE /I..\ENGINE /I..\FPSGAME /I..\SHARED /Zi /nologo /W3 /WX- /diagnostics:classic /Od /D WIN32 /D _DEBUG /D _WINDOWS /D _USING_V110_SDK71_ /D _MBCS /Gm- /EHa /RTCs /MTd /GS /fp:fast /Zc:wchar_t /Zc:forScope /Zc:inline /Fo".\DEBUG64\\" /Fd".\DEBUG64\VC141.PDB" /Gd /TP D:\PROGRAMMING\CARDBOARD\SRC\ENGINE\SERVERBROWSER.CPP
^D:\PROGRAMMING\CARDBOARD\SRC\ENGINE\3DGUI.CPP
/c /I..\ENET\INCLUDE /I..\INCLUDE /I..\ENGINE /I..\FPSGAME /I..\SHARED /Zi /nologo /W3 /WX- /diagnostics:classic /Od /D WIN32 /D _DEBUG /D _WINDOWS /D _USING_V110_SDK71_ /D _MBCS /Gm- /EHa /RTCs /MTd /GS /fp:fast /Zc:wchar_t /Zc:forScope /Zc:inline /Fo".\DEBUG64\\" /Fd".\DEBUG64\VC141.PDB" /Gd /TP D:\PROGRAMMING\CARDBOARD\SRC\ENGINE\3DGUI.CPP
^D:\PROGRAMMING\CARDBOARD\SRC\ENGINE\BIH.CPP
/c /I..\ENET\INCLUDE /I..\INCLUDE /I..\ENGINE /I..\FPSGAME /I..\SHARED /Zi /nologo /W3 /WX- /diagnostics:classic /Od /D WIN32 /D _DEBUG /D _WINDOWS /D _USING_V110_SDK71_ /D _MBCS /Gm- /EHa /RTCs /MTd /GS /fp:fast /Zc:wchar_t /Zc:forScope /Zc:inline /Fo".\DEBUG64\\" /Fd".\DEBUG64\VC141.PDB" /Gd /TP D:\PROGRAMMING\CARDBOARD\SRC\ENGINE\BIH.CPP
^D:\PROGRAMMING\CARDBOARD\SRC\ENGINE\BLOB.CPP
/c /I..\ENET\INCLUDE /I..\INCLUDE /I..\ENGINE /I..\FPSGAME /I..\SHARED /Zi /nologo /W3 /WX- /diagnostics:classic /Od /D WIN32 /D _DEBUG /D _WINDOWS /D _USING_V110_SDK71_ /D _MBCS /Gm- /EHa /RTCs /MTd /GS /fp:fast /Zc:wchar_t /Zc:forScope /Zc:inline /Fo".\DEBUG64\\" /Fd".\DEBUG64\VC141.PDB" /Gd /TP D:\PROGRAMMING\CARDBOARD\SRC\ENGINE\BLOB.CPP
^D:\PROGRAMMING\CARDBOARD\SRC\ENGINE\DECAL.CPP
/c /I..\ENET\INCLUDE /I..\INCLUDE /I..\ENGINE /I..\FPSGAME /I..\SHARED /Zi /nologo /W3 /WX- /diagnostics:classic /Od /D WIN32 /D _DEBUG /D _WINDOWS /D _USING_V110_SDK71_ /D _MBCS /Gm- /EHa /RTCs /MTd /GS /fp:fast /Zc:wchar_t /Zc:forScope /Zc:inline /Fo".\DEBUG64\\" /Fd".\DEBUG64\VC141.PDB" /Gd /TP D:\PROGRAMMING\CARDBOARD\SRC\ENGINE\DECAL.CPP
^D:\PROGRAMMING\CARDBOARD\SRC\ENGINE\DYNLIGHT.CPP
/c /I..\ENET\INCLUDE /I..\INCLUDE /I..\ENGINE /I..\FPSGAME /I..\SHARED /Zi /nologo /W3 /WX- /diagnostics:classic /Od /D WIN32 /D _DEBUG /D _WINDOWS /D _USING_V110_SDK71_ /D _MBCS /Gm- /EHa /RTCs /MTd /GS /fp:fast /Zc:wchar_t /Zc:forScope /Zc:inline /Fo".\DEBUG64\\" /Fd".\DEBUG64\VC141.PDB" /Gd /TP D:\PROGRAMMING\CARDBOARD\SRC\ENGINE\DYNLIGHT.CPP
^D:\PROGRAMMING\CARDBOARD\SRC\ENGINE\GLARE.CPP
/c /I..\ENET\INCLUDE /I..\INCLUDE /I..\ENGINE /I..\FPSGAME /I..\SHARED /Zi /nologo /W3 /WX- /diagnostics:classic /Od /D WIN32 /D _DEBUG /D _WINDOWS /D _USING_V110_SDK71_ /D _MBCS /Gm- /EHa /RTCs /MTd /GS /fp:fast /Zc:wchar_t /Zc:forScope /Zc:inline /Fo".\DEBUG64\\" /Fd".\DEBUG64\VC141.PDB" /Gd /TP D:\PROGRAMMING\CARDBOARD\SRC\ENGINE\GLARE.CPP
^D:\PROGRAMMING\CARDBOARD\SRC\ENGINE\GRASS.CPP
/c /I..\ENET\INCLUDE /I..\INCLUDE /I..\ENGINE /I..\FPSGAME /I..\SHARED /Zi /nologo /W3 /WX- /diagnostics:classic /Od /D WIN32 /D _DEBUG /D _WINDOWS /D _USING_V110_SDK71_ /D _MBCS /Gm- /EHa /RTCs /MTd /GS /fp:fast /Zc:wchar_t /Zc:forScope /Zc:inline /Fo".\DEBUG64\\" /Fd".\DEBUG64\VC141.PDB" /Gd /TP D:\PROGRAMMING\CARDBOARD\SRC\ENGINE\GRASS.CPP
^D:\PROGRAMMING\CARDBOARD\SRC\ENGINE\MATERIAL.CPP
/c /I..\ENET\INCLUDE /I..\INCLUDE /I..\ENGINE /I..\FPSGAME /I..\SHARED /Zi /nologo /W3 /WX- /diagnostics:classic /Od /D WIN32 /D _DEBUG /D _WINDOWS /D _USING_V110_SDK71_ /D _MBCS /Gm- /EHa /RTCs /MTd /GS /fp:fast /Zc:wchar_t /Zc:forScope /Zc:inline /Fo".\DEBUG64\\" /Fd".\DEBUG64\VC141.PDB" /Gd /TP D:\PROGRAMMING\CARDBOARD\SRC\ENGINE\MATERIAL.CPP
^D:\PROGRAMMING\CARDBOARD\SRC\ENGINE\RENDERGL.CPP
/c /I..\ENET\INCLUDE /I..\INCLUDE /I..\ENGINE /I..\FPSGAME /I..\SHARED /Zi /nologo /W3 /WX- /diagnostics:classic /Od /D WIN32 /D _DEBUG /D _WINDOWS /D _USING_V110_SDK71_ /D _MBCS /Gm- /EHa /RTCs /MTd /GS /fp:fast /Zc:wchar_t /Zc:forScope /Zc:inline /Fo".\DEBUG64\\" /Fd".\DEBUG64\VC141.PDB" /Gd /TP D:\PROGRAMMING\CARDBOARD\SRC\ENGINE\RENDERGL.CPP
^D:\PROGRAMMING\CARDBOARD\SRC\ENGINE\RENDERMODEL.CPP
/c /I..\ENET\INCLUDE /I..\INCLUDE /I..\ENGINE /I..\FPSGAME /I..\SHARED /Zi /nologo /W3 /WX- /diagnostics:classic /Od /D WIN32 /D _DEBUG /D _WINDOWS /D _USING_V110_SDK71_ /D _MBCS /Gm- /EHa /RTCs /MTd /GS /fp:fast /Zc:wchar_t /Zc:forScope /Zc:inline /Fo".\DEBUG64\\" /Fd".\DEBUG64\VC141.PDB" /Gd /TP D:\PROGRAMMING\CARDBOARD\SRC\ENGINE\RENDERMODEL.CPP
^D:\PROGRAMMING\CARDBOARD\SRC\ENGINE\RENDERPARTICLES.CPP
/c /I..\ENET\INCLUDE /I..\INCLUDE /I..\ENGINE /I..\FPSGAME /I..\SHARED /Zi /nologo /W3 /WX- /diagnostics:classic /Od /D WIN32 /D _DEBUG /D _WINDOWS /D _USING_V110_SDK71_ /D _MBCS /Gm- /EHa /RTCs /MTd /GS /fp:fast /Zc:wchar_t /Zc:forScope /Zc:inline /Fo".\DEBUG64\\" /Fd".\DEBUG64\VC141.PDB" /Gd /TP D:\PROGRAMMING\CARDBOARD\SRC\ENGINE\RENDERPARTICLES.CPP
^D:\PROGRAMMING\CARDBOARD\SRC\ENGINE\RENDERSKY.CPP
/c /I..\ENET\INCLUDE /I..\INCLUDE /I..\ENGINE /I..\FPSGAME /I..\SHARED /Zi /nologo /W3 /WX- /diagnostics:classic /Od /D WIN32 /D _DEBUG /D _WINDOWS /D _USING_V110_SDK71_ /D _MBCS /Gm- /EHa /RTCs /MTd /GS /fp:fast /Zc:wchar_t /Zc:forScope /Zc:inline /Fo".\DEBUG64\\" /Fd".\DEBUG64\VC141.PDB" /Gd /TP D:\PROGRAMMING\CARDBOARD\SRC\ENGINE\RENDERSKY.CPP
^D:\PROGRAMMING\CARDBOARD\SRC\ENGINE\RENDERTEXT.CPP
/c /I..\ENET\INCLUDE /I..\INCLUDE /I..\ENGINE /I..\FPSGAME /I..\SHARED /Zi /nologo /W3 /WX- /diagnostics:classic /Od /D WIN32 /D _DEBUG /D _WINDOWS /D _USING_V110_SDK71_ /D _MBCS /Gm- /EHa /RTCs /MTd /GS /fp:fast /Zc:wchar_t /Zc:forScope /Zc:inline /Fo".\DEBUG64\\" /Fd".\DEBUG64\VC141.PDB" /Gd /TP D:\PROGRAMMING\CARDBOARD\SRC\ENGINE\RENDERTEXT.CPP
^D:\PROGRAMMING\CARDBOARD\SRC\ENGINE\RENDERVA.CPP
/c /I..\ENET\INCLUDE /I..\INCLUDE /I..\ENGINE /I..\FPSGAME /I..\SHARED /Zi /nologo /W3 /WX- /diagnostics:classic /Od /D WIN32 /D _DEBUG /D _WINDOWS /D _USING_V110_SDK71_ /D _MBCS /Gm- /EHa /RTCs /MTd /GS /fp:fast /Zc:wchar_t /Zc:forScope /Zc:inline /Fo".\DEBUG64\\" /Fd".\DEBUG64\VC141.PDB" /Gd /TP D:\PROGRAMMING\CARDBOARD\SRC\ENGINE\RENDERVA.CPP
^D:\PROGRAMMING\CARDBOARD\SRC\ENGINE\SHADER.CPP
/c /I..\ENET\INCLUDE /I..\INCLUDE /I..\ENGINE /I..\FPSGAME /I..\SHARED /Zi /nologo /W3 /WX- /diagnostics:classic /Od /D WIN32 /D _DEBUG /D _WINDOWS /D _USING_V110_SDK71_ /D _MBCS /Gm- /EHa /RTCs /MTd /GS /fp:fast /Zc:wchar_t /Zc:forScope /Zc:inline /Fo".\DEBUG64\\" /Fd".\DEBUG64\VC141.PDB" /Gd /TP D:\PROGRAMMING\CARDBOARD\SRC\ENGINE\SHADER.CPP
^D:\PROGRAMMING\CARDBOARD\SRC\ENGINE\SHADOWMAP.CPP
/c /I..\ENET\INCLUDE /I..\INCLUDE /I..\ENGINE /I..\FPSGAME /I..\SHARED /Zi /nologo /W3 /WX- /diagnostics:classic /Od /D WIN32 /D _DEBUG /D _WINDOWS /D _USING_V110_SDK71_ /D _MBCS /Gm- /EHa /RTCs /MTd /GS /fp:fast /Zc:wchar_t /Zc:forScope /Zc:inline /Fo".\DEBUG64\\" /Fd".\DEBUG64\VC141.PDB" /Gd /TP D:\PROGRAMMING\CARDBOARD\SRC\ENGINE\SHADOWMAP.CPP
^D:\PROGRAMMING\CARDBOARD\SRC\ENGINE\TEXTURE.CPP
/c /I..\ENET\INCLUDE /I..\INCLUDE /I..\ENGINE /I..\FPSGAME /I..\SHARED /Zi /nologo /W3 /WX- /diagnostics:classic /Od /D WIN32 /D _DEBUG /D _WINDOWS /D _USING_V110_SDK71_ /D _MBCS /Gm- /EHa /RTCs /MTd /GS /fp:fast /Zc:wchar_t /Zc:forScope /Zc:inline /Fo".\DEBUG64\\" /Fd".\DEBUG64\VC141.PDB" /Gd /TP D:\PROGRAMMING\CARDBOARD\SRC\ENGINE\TEXTURE.CPP
^D:\PROGRAMMING\CARDBOARD\SRC\ENGINE\WATER.CPP
/c /I..\ENET\INCLUDE /I..\INCLUDE /I..\ENGINE /I..\FPSGAME /I..\SHARED /Zi /nologo /W3 /WX- /diagnostics:classic /Od /D WIN32 /D _DEBUG /D _WINDOWS /D _USING_V110_SDK71_ /D _MBCS /Gm- /EHa /RTCs /MTd /GS /fp:fast /Zc:wchar_t /Zc:forScope /Zc:inline /Fo".\DEBUG64\\" /Fd".\DEBUG64\VC141.PDB" /Gd /TP D:\PROGRAMMING\CARDBOARD\SRC\ENGINE\WATER.CPP
^D:\PROGRAMMING\CARDBOARD\SRC\ENGINE\COMMAND.CPP
/c /I..\ENET\INCLUDE /I..\INCLUDE /I..\ENGINE /I..\FPSGAME /I..\SHARED /Zi /nologo /W3 /WX- /diagnostics:classic /Od /D WIN32 /D _DEBUG /D _WINDOWS /D _USING_V110_SDK71_ /D _MBCS /Gm- /EHa /RTCs /MTd /GS /fp:fast /Zc:wchar_t /Zc:forScope /Zc:inline /Fo".\DEBUG64\\" /Fd".\DEBUG64\VC141.PDB" /Gd /TP D:\PROGRAMMING\CARDBOARD\SRC\ENGINE\COMMAND.CPP
^D:\PROGRAMMING\CARDBOARD\SRC\ENGINE\CONSOLE.CPP
/c /I..\ENET\INCLUDE /I..\INCLUDE /I..\ENGINE /I..\FPSGAME /I..\SHARED /Zi /nologo /W3 /WX- /diagnostics:classic /Od /D WIN32 /D _DEBUG /D _WINDOWS /D _USING_V110_SDK71_ /D _MBCS /Gm- /EHa /RTCs /MTd /GS /fp:fast /Zc:wchar_t /Zc:forScope /Zc:inline /Fo".\DEBUG64\\" /Fd".\DEBUG64\VC141.PDB" /Gd /TP D:\PROGRAMMING\CARDBOARD\SRC\ENGINE\CONSOLE.CPP
^D:\PROGRAMMING\CARDBOARD\SRC\ENGINE\MAIN.CPP
/c /I..\ENET\INCLUDE /I..\INCLUDE /I..\ENGINE /I..\FPSGAME /I..\SHARED /Zi /nologo /W3 /WX- /diagnostics:classic /Od /D WIN32 /D _DEBUG /D _WINDOWS /D _USING_V110_SDK71_ /D _MBCS /Gm- /EHa /RTCs /MTd /GS /fp:fast /Zc:wchar_t /Zc:forScope /Zc:inline /Fo".\DEBUG64\\" /Fd".\DEBUG64\VC141.PDB" /Gd /TP D:\PROGRAMMING\CARDBOARD\SRC\ENGINE\MAIN.CPP
^D:\PROGRAMMING\CARDBOARD\SRC\ENGINE\MENUS.CPP
/c /I..\ENET\INCLUDE /I..\INCLUDE /I..\ENGINE /I..\FPSGAME /I..\SHARED /Zi /nologo /W3 /WX- /diagnostics:classic /Od /D WIN32 /D _DEBUG /D _WINDOWS /D _USING_V110_SDK71_ /D _MBCS /Gm- /EHa /RTCs /MTd /GS /fp:fast /Zc:wchar_t /Zc:forScope /Zc:inline /Fo".\DEBUG64\\" /Fd".\DEBUG64\VC141.PDB" /Gd /TP D:\PROGRAMMING\CARDBOARD\SRC\ENGINE\MENUS.CPP
^D:\PROGRAMMING\CARDBOARD\SRC\ENGINE\MOVIE.CPP
/c /I..\ENET\INCLUDE /I..\INCLUDE /I..\ENGINE /I..\FPSGAME /I..\SHARED /Zi /nologo /W3 /WX- /diagnostics:classic /Od /D WIN32 /D _DEBUG /D _WINDOWS /D _USING_V110_SDK71_ /D _MBCS /Gm- /EHa /RTCs /MTd /GS /fp:fast /Zc:wchar_t /Zc:forScope /Zc:inline /Fo".\DEBUG64\\" /Fd".\DEBUG64\VC141.PDB" /Gd /TP D:\PROGRAMMING\CARDBOARD\SRC\ENGINE\MOVIE.CPP
^D:\PROGRAMMING\CARDBOARD\SRC\ENGINE\SOUND.CPP
/c /I..\ENET\INCLUDE /I..\INCLUDE /I..\ENGINE /I..\FPSGAME /I..\SHARED /Zi /nologo /W3 /WX- /diagnostics:classic /Od /D WIN32 /D _DEBUG /D _WINDOWS /D _USING_V110_SDK71_ /D _MBCS /Gm- /EHa /RTCs /MTd /GS /fp:fast /Zc:wchar_t /Zc:forScope /Zc:inline /Fo".\DEBUG64\\" /Fd".\DEBUG64\VC141.PDB" /Gd /TP D:\PROGRAMMING\CARDBOARD\SRC\ENGINE\SOUND.CPP
^D:\PROGRAMMING\CARDBOARD\SRC\SHARED\CRYPTO.CPP
/c /I..\ENET\INCLUDE /I..\INCLUDE /I..\ENGINE /I..\FPSGAME /I..\SHARED /Zi /nologo /W3 /WX- /diagnostics:classic /Od /D WIN32 /D _DEBUG /D _WINDOWS /D _USING_V110_SDK71_ /D _MBCS /Gm- /EHa /RTCs /MTd /GS /fp:fast /Zc:wchar_t /Zc:forScope /Zc:inline /Fo".\DEBUG64\\" /Fd".\DEBUG64\VC141.PDB" /Gd /TP D:\PROGRAMMING\CARDBOARD\SRC\SHARED\CRYPTO.CPP
^D:\PROGRAMMING\CARDBOARD\SRC\SHARED\GEOM.CPP
/c /I..\ENET\INCLUDE /I..\INCLUDE /I..\ENGINE /I..\FPSGAME /I..\SHARED /Zi /nologo /W3 /WX- /diagnostics:classic /Od /D WIN32 /D _DEBUG /D _WINDOWS /D _USING_V110_SDK71_ /D _MBCS /Gm- /EHa /RTCs /MTd /GS /fp:fast /Zc:wchar_t /Zc:forScope /Zc:inline /Fo".\DEBUG64\\" /Fd".\DEBUG64\VC141.PDB" /Gd /TP D:\PROGRAMMING\CARDBOARD\SRC\SHARED\GEOM.CPP
^D:\PROGRAMMING\CARDBOARD\SRC\SHARED\GLEMU.CPP
/c /I..\ENET\INCLUDE /I..\INCLUDE /I..\ENGINE /I..\FPSGAME /I..\SHARED /Zi /nologo /W3 /WX- /diagnostics:classic /Od /D WIN32 /D _DEBUG /D _WINDOWS /D _USING_V110_SDK71_ /D _MBCS /Gm- /EHa /RTCs /MTd /GS /fp:fast /Zc:wchar_t /Zc:forScope /Zc:inline /Fo".\DEBUG64\\" /Fd".\DEBUG64\VC141.PDB" /Gd /TP D:\PROGRAMMING\CARDBOARD\SRC\SHARED\GLEMU.CPP
^D:\PROGRAMMING\CARDBOARD\SRC\SHARED\STREAM.CPP
/c /I..\ENET\INCLUDE /I..\INCLUDE /I..\ENGINE /I..\FPSGAME /I..\SHARED /Zi /nologo /W3 /WX- /diagnostics:classic /Od /D WIN32 /D _DEBUG /D _WINDOWS /D _USING_V110_SDK71_ /D _MBCS /Gm- /EHa /RTCs /MTd /GS /fp:fast /Zc:wchar_t /Zc:forScope /Zc:inline /Fo".\DEBUG64\\" /Fd".\DEBUG64\VC141.PDB" /Gd /TP D:\PROGRAMMING\CARDBOARD\SRC\SHARED\STREAM.CPP
^D:\PROGRAMMING\CARDBOARD\SRC\SHARED\TOOLS.CPP
/c /I..\ENET\INCLUDE /I..\INCLUDE /I..\ENGINE /I..\FPSGAME /I..\SHARED /Zi /nologo /W3 /WX- /diagnostics:classic /Od /D WIN32 /D _DEBUG /D _WINDOWS /D _USING_V110_SDK71_ /D _MBCS /Gm- /EHa /RTCs /MTd /GS /fp:fast /Zc:wchar_t /Zc:forScope /Zc:inline /Fo".\DEBUG64\\" /Fd".\DEBUG64\VC141.PDB" /Gd /TP D:\PROGRAMMING\CARDBOARD\SRC\SHARED\TOOLS.CPP
^D:\PROGRAMMING\CARDBOARD\SRC\SHARED\ZIP.CPP
/c /I..\ENET\INCLUDE /I..\INCLUDE /I..\ENGINE /I..\FPSGAME /I..\SHARED /Zi /nologo /W3 /WX- /diagnostics:classic /Od /D WIN32 /D _DEBUG /D _WINDOWS /D _USING_V110_SDK71_ /D _MBCS /Gm- /EHa /RTCs /MTd /GS /fp:fast /Zc:wchar_t /Zc:forScope /Zc:inline /Fo".\DEBUG64\\" /Fd".\DEBUG64\VC141.PDB" /Gd /TP D:\PROGRAMMING\CARDBOARD\SRC\SHARED\ZIP.CPP
^D:\PROGRAMMING\CARDBOARD\SRC\FPSGAME\AI.CPP
/c /I..\ENET\INCLUDE /I..\INCLUDE /I..\ENGINE /I..\FPSGAME /I..\SHARED /Zi /nologo /W3 /WX- /diagnostics:classic /Od /D WIN32 /D _DEBUG /D _WINDOWS /D _USING_V110_SDK71_ /D _MBCS /Gm- /EHa /RTCs /MTd /GS /fp:fast /Zc:wchar_t /Zc:forScope /Zc:inline /Fo".\DEBUG64\\" /Fd".\DEBUG64\VC141.PDB" /Gd /TP D:\PROGRAMMING\CARDBOARD\SRC\FPSGAME\AI.CPP
^D:\PROGRAMMING\CARDBOARD\SRC\FPSGAME\ENTITIES.CPP
/c /I..\ENET\INCLUDE /I..\INCLUDE /I..\ENGINE /I..\FPSGAME /I..\SHARED /Zi /nologo /W3 /WX- /diagnostics:classic /Od /D WIN32 /D _DEBUG /D _WINDOWS /D _USING_V110_SDK71_ /D _MBCS /Gm- /EHa /RTCs /MTd /GS /fp:fast /Zc:wchar_t /Zc:forScope /Zc:inline /Fo".\DEBUG64\\" /Fd".\DEBUG64\VC141.PDB" /Gd /TP D:\PROGRAMMING\CARDBOARD\SRC\FPSGAME\ENTITIES.CPP
^D:\PROGRAMMING\CARDBOARD\SRC\FPSGAME\FPS.CPP
/c /I..\ENET\INCLUDE /I..\INCLUDE /I..\ENGINE /I..\FPSGAME /I..\SHARED /Zi /nologo /W3 /WX- /diagnostics:classic /Od /D WIN32 /D _DEBUG /D _WINDOWS /D _USING_V110_SDK71_ /D _MBCS /Gm- /EHa /RTCs /MTd /GS /fp:fast /Zc:wchar_t /Zc:forScope /Zc:inline /Fo".\DEBUG64\\" /Fd".\DEBUG64\VC141.PDB" /Gd /TP D:\PROGRAMMING\CARDBOARD\SRC\FPSGAME\FPS.CPP
^D:\PROGRAMMING\CARDBOARD\SRC\FPSGAME\MONSTER.CPP
/c /I..\ENET\INCLUDE /I..\INCLUDE /I..\ENGINE /I..\FPSGAME /I..\SHARED /Zi /nologo /W3 /WX- /diagnostics:classic /Od /D WIN32 /D _DEBUG /D _WINDOWS /D _USING_V110_SDK71_ /D _MBCS /Gm- /EHa /RTCs /MTd /GS /fp:fast /Zc:wchar_t /Zc:forScope /Zc:inline /Fo".\DEBUG64\\" /Fd".\DEBUG64\VC141.PDB" /Gd /TP D:\PROGRAMMING\CARDBOARD\SRC\FPSGAME\MONSTER.CPP
^D:\PROGRAMMING\CARDBOARD\SRC\FPSGAME\MOVABLE.CPP
/c /I..\ENET\INCLUDE /I..\INCLUDE /I..\ENGINE /I..\FPSGAME /I..\SHARED /Zi /nologo /W3 /WX- /diagnostics:classic /Od /D WIN32 /D _DEBUG /D _WINDOWS /D _USING_V110_SDK71_ /D _MBCS /Gm- /EHa /RTCs /MTd /GS /fp:fast /Zc:wchar_t /Zc:forScope /Zc:inline /Fo".\DEBUG64\\" /Fd".\DEBUG64\VC141.PDB" /Gd /TP D:\PROGRAMMING\CARDBOARD\SRC\FPSGAME\MOVABLE.CPP
^D:\PROGRAMMING\CARDBOARD\SRC\FPSGAME\RENDER.CPP
/c /I..\ENET\INCLUDE /I..\INCLUDE /I..\ENGINE /I..\FPSGAME /I..\SHARED /Zi /nologo /W3 /WX- /diagnostics:classic /Od /D WIN32 /D _DEBUG /D _WINDOWS /D _USING_V110_SDK71_ /D _MBCS /Gm- /EHa /RTCs /MTd /GS /fp:fast /Zc:wchar_t /Zc:forScope /Zc:inline /Fo".\DEBUG64\\" /Fd".\DEBUG64\VC141.PDB" /Gd /TP D:\PROGRAMMING\CARDBOARD\SRC\FPSGAME\RENDER.CPP
^D:\PROGRAMMING\CARDBOARD\SRC\FPSGAME\SCOREBOARD.CPP
/c /I..\ENET\INCLUDE /I..\INCLUDE /I..\ENGINE /I..\FPSGAME /I..\SHARED /Zi /nologo /W3 /WX- /diagnostics:classic /Od /D WIN32 /D _DEBUG /D _WINDOWS /D _USING_V110_SDK71_ /D _MBCS /Gm- /EHa /RTCs /MTd /GS /fp:fast /Zc:wchar_t /Zc:forScope /Zc:inline /Fo".\DEBUG64\\" /Fd".\DEBUG64\VC141.PDB" /Gd /TP D:\PROGRAMMING\CARDBOARD\SRC\FPSGAME\SCOREBOARD.CPP
^D:\PROGRAMMING\CARDBOARD\SRC\FPSGAME\WAYPOINT.CPP
/c /I..\ENET\INCLUDE /I..\INCLUDE /I..\ENGINE /I..\FPSGAME /I..\SHARED /Zi /nologo /W3 /WX- /diagnostics:classic /Od /D WIN32 /D _DEBUG /D _WINDOWS /D _USING_V110_SDK71_ /D _MBCS /Gm- /EHa /RTCs /MTd /GS /fp:fast /Zc:wchar_t /Zc:forScope /Zc:inline /Fo".\DEBUG64\\" /Fd".\DEBUG64\VC141.PDB" /Gd /TP D:\PROGRAMMING\CARDBOARD\SRC\FPSGAME\WAYPOINT.CPP
^D:\PROGRAMMING\CARDBOARD\SRC\FPSGAME\WEAPON.CPP
/c /I..\ENET\INCLUDE /I..\INCLUDE /I..\ENGINE /I..\FPSGAME /I..\SHARED /Zi /nologo /W3 /WX- /diagnostics:classic /Od /D WIN32 /D _DEBUG /D _WINDOWS /D _USING_V110_SDK71_ /D _MBCS /Gm- /EHa /RTCs /MTd /GS /fp:fast /Zc:wchar_t /Zc:forScope /Zc:inline /Fo".\DEBUG64\\" /Fd".\DEBUG64\VC141.PDB" /Gd /TP D:\PROGRAMMING\CARDBOARD\SRC\FPSGAME\WEAPON.CPP
^D:\PROGRAMMING\CARDBOARD\SRC\CARDSTOCK\LUA\LAPI.C
/c /I..\ENET\INCLUDE /I..\INCLUDE /I..\ENGINE /I..\FPSGAME /I..\SHARED /Zi /nologo /W3 /WX- /diagnostics:classic /Od /D WIN32 /D _DEBUG /D _WINDOWS /D _USING_V110_SDK71_ /D _MBCS /Gm- /EHa /RTCs /MTd /GS /fp:fast /Zc:wchar_t /Zc:forScope /Zc:inline /Fo".\DEBUG64\\" /Fd".\DEBUG64\VC141.PDB" /Gd /TC D:\PROGRAMMING\CARDBOARD\SRC\CARDSTOCK\LUA\LAPI.C
^D:\PROGRAMMING\CARDBOARD\SRC\CARDSTOCK\LUA\LAUXLIB.C
/c /I..\ENET\INCLUDE /I..\INCLUDE /I..\ENGINE /I..\FPSGAME /I..\SHARED /Zi /nologo /W3 /WX- /diagnostics:classic /Od /D WIN32 /D _DEBUG /D _WINDOWS /D _USING_V110_SDK71_ /D _MBCS /Gm- /EHa /RTCs /MTd /GS /fp:fast /Zc:wchar_t /Zc:forScope /Zc:inline /Fo".\DEBUG64\\" /Fd".\DEBUG64\VC141.PDB" /Gd /TC D:\PROGRAMMING\CARDBOARD\SRC\CARDSTOCK\LUA\LAUXLIB.C
^D:\PROGRAMMING\CARDBOARD\SRC\CARDSTOCK\LUA\LBASELIB.C
/c /I..\ENET\INCLUDE /I..\INCLUDE /I..\ENGINE /I..\FPSGAME /I..\SHARED /Zi /nologo /W3 /WX- /diagnostics:classic /Od /D WIN32 /D _DEBUG /D _WINDOWS /D _USING_V110_SDK71_ /D _MBCS /Gm- /EHa /RTCs /MTd /GS /fp:fast /Zc:wchar_t /Zc:forScope /Zc:inline /Fo".\DEBUG64\\" /Fd".\DEBUG64\VC141.PDB" /Gd /TC D:\PROGRAMMING\CARDBOARD\SRC\CARDSTOCK\LUA\LBASELIB.C
^D:\PROGRAMMING\CARDBOARD\SRC\CARDSTOCK\LUA\LBITLIB.C
/c /I..\ENET\INCLUDE /I..\INCLUDE /I..\ENGINE /I..\FPSGAME /I..\SHARED /Zi /nologo /W3 /WX- /diagnostics:classic /Od /D WIN32 /D _DEBUG /D _WINDOWS /D _USING_V110_SDK71_ /D _MBCS /Gm- /EHa /RTCs /MTd /GS /fp:fast /Zc:wchar_t /Zc:forScope /Zc:inline /Fo".\DEBUG64\\" /Fd".\DEBUG64\VC141.PDB" /Gd /TC D:\PROGRAMMING\CARDBOARD\SRC\CARDSTOCK\LUA\LBITLIB.C
^D:\PROGRAMMING\CARDBOARD\SRC\CARDSTOCK\LUA\LCODE.C
/c /I..\ENET\INCLUDE /I..\INCLUDE /I..\ENGINE /I..\FPSGAME /I..\SHARED /Zi /nologo /W3 /WX- /diagnostics:classic /Od /D WIN32 /D _DEBUG /D _WINDOWS /D _USING_V110_SDK71_ /D _MBCS /Gm- /EHa /RTCs /MTd /GS /fp:fast /Zc:wchar_t /Zc:forScope /Zc:inline /Fo".\DEBUG64\\" /Fd".\DEBUG64\VC141.PDB" /Gd /TC D:\PROGRAMMING\CARDBOARD\SRC\CARDSTOCK\LUA\LCODE.C
^D:\PROGRAMMING\CARDBOARD\SRC\CARDSTOCK\LUA\LCOROLIB.C
/c /I..\ENET\INCLUDE /I..\INCLUDE /I..\ENGINE /I..\FPSGAME /I..\SHARED /Zi /nologo /W3 /WX- /diagnostics:classic /Od /D WIN32 /D _DEBUG /D _WINDOWS /D _USING_V110_SDK71_ /D _MBCS /Gm- /EHa /RTCs /MTd /GS /fp:fast /Zc:wchar_t /Zc:forScope /Zc:inline /Fo".\DEBUG64\\" /Fd".\DEBUG64\VC141.PDB" /Gd /TC D:\PROGRAMMING\CARDBOARD\SRC\CARDSTOCK\LUA\LCOROLIB.C
^D:\PROGRAMMING\CARDBOARD\SRC\CARDSTOCK\LUA\LCTYPE.C
/c /I..\ENET\INCLUDE /I..\INCLUDE /I..\ENGINE /I..\FPSGAME /I..\SHARED /Zi /nologo /W3 /WX- /diagnostics:classic /Od /D WIN32 /D _DEBUG /D _WINDOWS /D _USING_V110_SDK71_ /D _MBCS /Gm- /EHa /RTCs /MTd /GS /fp:fast /Zc:wchar_t /Zc:forScope /Zc:inline /Fo".\DEBUG64\\" /Fd".\DEBUG64\VC141.PDB" /Gd /TC D:\PROGRAMMING\CARDBOARD\SRC\CARDSTOCK\LUA\LCTYPE.C
^D:\PROGRAMMING\CARDBOARD\SRC\CARDSTOCK\LUA\LDBLIB.C
/c /I..\ENET\INCLUDE /I..\INCLUDE /I..\ENGINE /I..\FPSGAME /I..\SHARED /Zi /nologo /W3 /WX- /diagnostics:classic /Od /D WIN32 /D _DEBUG /D _WINDOWS /D _USING_V110_SDK71_ /D _MBCS /Gm- /EHa /RTCs /MTd /GS /fp:fast /Zc:wchar_t /Zc:forScope /Zc:inline /Fo".\DEBUG64\\" /Fd".\DEBUG64\VC141.PDB" /Gd /TC D:\PROGRAMMING\CARDBOARD\SRC\CARDSTOCK\LUA\LDBLIB.C
^D:\PROGRAMMING\CARDBOARD\SRC\CARDSTOCK\LUA\LDEBUG.C
/c /I..\ENET\INCLUDE /I..\INCLUDE /I..\ENGINE /I..\FPSGAME /I..\SHARED /Zi /nologo /W3 /WX- /diagnostics:classic /Od /D WIN32 /D _DEBUG /D _WINDOWS /D _USING_V110_SDK71_ /D _MBCS /Gm- /EHa /RTCs /MTd /GS /fp:fast /Zc:wchar_t /Zc:forScope /Zc:inline /Fo".\DEBUG64\\" /Fd".\DEBUG64\VC141.PDB" /Gd /TC D:\PROGRAMMING\CARDBOARD\SRC\CARDSTOCK\LUA\LDEBUG.C
^D:\PROGRAMMING\CARDBOARD\SRC\CARDSTOCK\LUA\LDO.C
/c /I..\ENET\INCLUDE /I..\INCLUDE /I..\ENGINE /I..\FPSGAME /I..\SHARED /Zi /nologo /W3 /WX- /diagnostics:classic /Od /D WIN32 /D _DEBUG /D _WINDOWS /D _USING_V110_SDK71_ /D _MBCS /Gm- /EHa /RTCs /MTd /GS /fp:fast /Zc:wchar_t /Zc:forScope /Zc:inline /Fo".\DEBUG64\\" /Fd".\DEBUG64\VC141.PDB" /Gd /TC D:\PROGRAMMING\CARDBOARD\SRC\CARDSTOCK\LUA\LDO.C
^D:\PROGRAMMING\CARDBOARD\SRC\CARDSTOCK\LUA\LDUMP.C
/c /I..\ENET\INCLUDE /I..\INCLUDE /I..\ENGINE /I..\FPSGAME /I..\SHARED /Zi /nologo /W3 /WX- /diagnostics:classic /Od /D WIN32 /D _DEBUG /D _WINDOWS /D _USING_V110_SDK71_ /D _MBCS /Gm- /EHa /RTCs /MTd /GS /fp:fast /Zc:wchar_t /Zc:forScope /Zc:inline /Fo".\DEBUG64\\" /Fd".\DEBUG64\VC141.PDB" /Gd /TC D:\PROGRAMMING\CARDBOARD\SRC\CARDSTOCK\LUA\LDUMP.C
^D:\PROGRAMMING\CARDBOARD\SRC\CARDSTOCK\LUA\LFUNC.C
/c /I..\ENET\INCLUDE /I..\INCLUDE /I..\ENGINE /I..\FPSGAME /I..\SHARED /Zi /nologo /W3 /WX- /diagnostics:classic /Od /D WIN32 /D _DEBUG /D _WINDOWS /D _USING_V110_SDK71_ /D _MBCS /Gm- /EHa /RTCs /MTd /GS /fp:fast /Zc:wchar_t /Zc:forScope /Zc:inline /Fo".\DEBUG64\\" /Fd".\DEBUG64\VC141.PDB" /Gd /TC D:\PROGRAMMING\CARDBOARD\SRC\CARDSTOCK\LUA\LFUNC.C
^D:\PROGRAMMING\CARDBOARD\SRC\CARDSTOCK\LUA\LGC.C
/c /I..\ENET\INCLUDE /I..\INCLUDE /I..\ENGINE /I..\FPSGAME /I..\SHARED /Zi /nologo /W3 /WX- /diagnostics:classic /Od /D WIN32 /D _DEBUG /D _WINDOWS /D _USING_V110_SDK71_ /D _MBCS /Gm- /EHa /RTCs /MTd /GS /fp:fast /Zc:wchar_t /Zc:forScope /Zc:inline /Fo".\DEBUG64\\" /Fd".\DEBUG64\VC141.PDB" /Gd /TC D:\PROGRAMMING\CARDBOARD\SRC\CARDSTOCK\LUA\LGC.C
^D:\PROGRAMMING\CARDBOARD\SRC\CARDSTOCK\LUA\LINIT.C
/c /I..\ENET\INCLUDE /I..\INCLUDE /I..\ENGINE /I..\FPSGAME /I..\SHARED /Zi /nologo /W3 /WX- /diagnostics:classic /Od /D WIN32 /D _DEBUG /D _WINDOWS /D _USING_V110_SDK71_ /D _MBCS /Gm- /EHa /RTCs /MTd /GS /fp:fast /Zc:wchar_t /Zc:forScope /Zc:inline /Fo".\DEBUG64\\" /Fd".\DEBUG64\VC141.PDB" /Gd /TC D:\PROGRAMMING\CARDBOARD\SRC\CARDSTOCK\LUA\LINIT.C
^D:\PROGRAMMING\CARDBOARD\SRC\CARDSTOCK\LUA\LIOLIB.C
/c /I..\ENET\INCLUDE /I..\INCLUDE /I..\ENGINE /I..\FPSGAME /I..\SHARED /Zi /nologo /W3 /WX- /diagnostics:classic /Od /D WIN32 /D _DEBUG /D _WINDOWS /D _USING_V110_SDK71_ /D _MBCS /Gm- /EHa /RTCs /MTd /GS /fp:fast /Zc:wchar_t /Zc:forScope /Zc:inline /Fo".\DEBUG64\\" /Fd".\DEBUG64\VC141.PDB" /Gd /TC D:\PROGRAMMING\CARDBOARD\SRC\CARDSTOCK\LUA\LIOLIB.C
^D:\PROGRAMMING\CARDBOARD\SRC\CARDSTOCK\LUA\LLEX.C
/c /I..\ENET\INCLUDE /I..\INCLUDE /I..\ENGINE /I..\FPSGAME /I..\SHARED /Zi /nologo /W3 /WX- /diagnostics:classic /Od /D WIN32 /D _DEBUG /D _WINDOWS /D _USING_V110_SDK71_ /D _MBCS /Gm- /EHa /RTCs /MTd /GS /fp:fast /Zc:wchar_t /Zc:forScope /Zc:inline /Fo".\DEBUG64\\" /Fd".\DEBUG64\VC141.PDB" /Gd /TC D:\PROGRAMMING\CARDBOARD\SRC\CARDSTOCK\LUA\LLEX.C
^D:\PROGRAMMING\CARDBOARD\SRC\CARDSTOCK\LUA\LMATHLIB.C
/c /I..\ENET\INCLUDE /I..\INCLUDE /I..\ENGINE /I..\FPSGAME /I..\SHARED /Zi /nologo /W3 /WX- /diagnostics:classic /Od /D WIN32 /D _DEBUG /D _WINDOWS /D _USING_V110_SDK71_ /D _MBCS /Gm- /EHa /RTCs /MTd /GS /fp:fast /Zc:wchar_t /Zc:forScope /Zc:inline /Fo".\DEBUG64\\" /Fd".\DEBUG64\VC141.PDB" /Gd /TC D:\PROGRAMMING\CARDBOARD\SRC\CARDSTOCK\LUA\LMATHLIB.C
^D:\PROGRAMMING\CARDBOARD\SRC\CARDSTOCK\LUA\LMEM.C
/c /I..\ENET\INCLUDE /I..\INCLUDE /I..\ENGINE /I..\FPSGAME /I..\SHARED /Zi /nologo /W3 /WX- /diagnostics:classic /Od /D WIN32 /D _DEBUG /D _WINDOWS /D _USING_V110_SDK71_ /D _MBCS /Gm- /EHa /RTCs /MTd /GS /fp:fast /Zc:wchar_t /Zc:forScope /Zc:inline /Fo".\DEBUG64\\" /Fd".\DEBUG64\VC141.PDB" /Gd /TC D:\PROGRAMMING\CARDBOARD\SRC\CARDSTOCK\LUA\LMEM.C
^D:\PROGRAMMING\CARDBOARD\SRC\CARDSTOCK\LUA\LOADLIB.C
/c /I..\ENET\INCLUDE /I..\INCLUDE /I..\ENGINE /I..\FPSGAME /I..\SHARED /Zi /nologo /W3 /WX- /diagnostics:classic /Od /D WIN32 /D _DEBUG /D _WINDOWS /D _USING_V110_SDK71_ /D _MBCS /Gm- /EHa /RTCs /MTd /GS /fp:fast /Zc:wchar_t /Zc:forScope /Zc:inline /Fo".\DEBUG64\\" /Fd".\DEBUG64\VC141.PDB" /Gd /TC D:\PROGRAMMING\CARDBOARD\SRC\CARDSTOCK\LUA\LOADLIB.C
^D:\PROGRAMMING\CARDBOARD\SRC\CARDSTOCK\LUA\LOBJECT.C
/c /I..\ENET\INCLUDE /I..\INCLUDE /I..\ENGINE /I..\FPSGAME /I..\SHARED /Zi /nologo /W3 /WX- /diagnostics:classic /Od /D WIN32 /D _DEBUG /D _WINDOWS /D _USING_V110_SDK71_ /D _MBCS /Gm- /EHa /RTCs /MTd /GS /fp:fast /Zc:wchar_t /Zc:forScope /Zc:inline /Fo".\DEBUG64\\" /Fd".\DEBUG64\VC141.PDB" /Gd /TC D:\PROGRAMMING\CARDBOARD\SRC\CARDSTOCK\LUA\LOBJECT.C
^D:\PROGRAMMING\CARDBOARD\SRC\CARDSTOCK\LUA\LOPCODES.C
/c /I..\ENET\INCLUDE /I..\INCLUDE /I..\ENGINE /I..\FPSGAME /I..\SHARED /Zi /nologo /W3 /WX- /diagnostics:classic /Od /D WIN32 /D _DEBUG /D _WINDOWS /D _USING_V110_SDK71_ /D _MBCS /Gm- /EHa /RTCs /MTd /GS /fp:fast /Zc:wchar_t /Zc:forScope /Zc:inline /Fo".\DEBUG64\\" /Fd".\DEBUG64\VC141.PDB" /Gd /TC D:\PROGRAMMING\CARDBOARD\SRC\CARDSTOCK\LUA\LOPCODES.C
^D:\PROGRAMMING\CARDBOARD\SRC\CARDSTOCK\LUA\LOSLIB.C
/c /I..\ENET\INCLUDE /I..\INCLUDE /I..\ENGINE /I..\FPSGAME /I..\SHARED /Zi /nologo /W3 /WX- /diagnostics:classic /Od /D WIN32 /D _DEBUG /D _WINDOWS /D _USING_V110_SDK71_ /D _MBCS /Gm- /EHa /RTCs /MTd /GS /fp:fast /Zc:wchar_t /Zc:forScope /Zc:inline /Fo".\DEBUG64\\" /Fd".\DEBUG64\VC141.PDB" /Gd /TC D:\PROGRAMMING\CARDBOARD\SRC\CARDSTOCK\LUA\LOSLIB.C
^D:\PROGRAMMING\CARDBOARD\SRC\CARDSTOCK\LUA\LPARSER.C
/c /I..\ENET\INCLUDE /I..\INCLUDE /I..\ENGINE /I..\FPSGAME /I..\SHARED /Zi /nologo /W3 /WX- /diagnostics:classic /Od /D WIN32 /D _DEBUG /D _WINDOWS /D _USING_V110_SDK71_ /D _MBCS /Gm- /EHa /RTCs /MTd /GS /fp:fast /Zc:wchar_t /Zc:forScope /Zc:inline /Fo".\DEBUG64\\" /Fd".\DEBUG64\VC141.PDB" /Gd /TC D:\PROGRAMMING\CARDBOARD\SRC\CARDSTOCK\LUA\LPARSER.C
^D:\PROGRAMMING\CARDBOARD\SRC\CARDSTOCK\LUA\LSTATE.C
/c /I..\ENET\INCLUDE /I..\INCLUDE /I..\ENGINE /I..\FPSGAME /I..\SHARED /Zi /nologo /W3 /WX- /diagnostics:classic /Od /D WIN32 /D _DEBUG /D _WINDOWS /D _USING_V110_SDK71_ /D _MBCS /Gm- /EHa /RTCs /MTd /GS /fp:fast /Zc:wchar_t /Zc:forScope /Zc:inline /Fo".\DEBUG64\\" /Fd".\DEBUG64\VC141.PDB" /Gd /TC D:\PROGRAMMING\CARDBOARD\SRC\CARDSTOCK\LUA\LSTATE.C
^D:\PROGRAMMING\CARDBOARD\SRC\CARDSTOCK\LUA\LSTRING.C
/c /I..\ENET\INCLUDE /I..\INCLUDE /I..\ENGINE /I..\FPSGAME /I..\SHARED /Zi /nologo /W3 /WX- /diagnostics:classic /Od /D WIN32 /D _DEBUG /D _WINDOWS /D _USING_V110_SDK71_ /D _MBCS /Gm- /EHa /RTCs /MTd /GS /fp:fast /Zc:wchar_t /Zc:forScope /Zc:inline /Fo".\DEBUG64\\" /Fd".\DEBUG64\VC141.PDB" /Gd /TC D:\PROGRAMMING\CARDBOARD\SRC\CARDSTOCK\LUA\LSTRING.C
^D:\PROGRAMMING\CARDBOARD\SRC\CARDSTOCK\LUA\LSTRLIB.C
/c /I..\ENET\INCLUDE /I..\INCLUDE /I..\ENGINE /I..\FPSGAME /I..\SHARED /Zi /nologo /W3 /WX- /diagnostics:classic /Od /D WIN32 /D _DEBUG /D _WINDOWS /D _USING_V110_SDK71_ /D _MBCS /Gm- /EHa /RTCs /MTd /GS /fp:fast /Zc:wchar_t /Zc:forScope /Zc:inline /Fo".\DEBUG64\\" /Fd".\DEBUG64\VC141.PDB" /Gd /TC D:\PROGRAMMING\CARDBOARD\SRC\CARDSTOCK\LUA\LSTRLIB.C
^D:\PROGRAMMING\CARDBOARD\SRC\CARDSTOCK\LUA\LTABLE.C
/c /I..\ENET\INCLUDE /I..\INCLUDE /I..\ENGINE /I..\FPSGAME /I..\SHARED /Zi /nologo /W3 /WX- /diagnostics:classic /Od /D WIN32 /D _DEBUG /D _WINDOWS /D _USING_V110_SDK71_ /D _MBCS /Gm- /EHa /RTCs /MTd /GS /fp:fast /Zc:wchar_t /Zc:forScope /Zc:inline /Fo".\DEBUG64\\" /Fd".\DEBUG64\VC141.PDB" /Gd /TC D:\PROGRAMMING\CARDBOARD\SRC\CARDSTOCK\LUA\LTABLE.C
^D:\PROGRAMMING\CARDBOARD\SRC\CARDSTOCK\LUA\LTABLIB.C
/c /I..\ENET\INCLUDE /I..\INCLUDE /I..\ENGINE /I..\FPSGAME /I..\SHARED /Zi /nologo /W3 /WX- /diagnostics:classic /Od /D WIN32 /D _DEBUG /D _WINDOWS /D _USING_V110_SDK71_ /D _MBCS /Gm- /EHa /RTCs /MTd /GS /fp:fast /Zc:wchar_t /Zc:forScope /Zc:inline /Fo".\DEBUG64\\" /Fd".\DEBUG64\VC141.PDB" /Gd /TC D:\PROGRAMMING\CARDBOARD\SRC\CARDSTOCK\LUA\LTABLIB.C
^D:\PROGRAMMING\CARDBOARD\SRC\CARDSTOCK\LUA\LTM.C
/c /I..\ENET\INCLUDE /I..\INCLUDE /I..\ENGINE /I..\FPSGAME /I..\SHARED /Zi /nologo /W3 /WX- /diagnostics:classic /Od /D WIN32 /D _DEBUG /D _WINDOWS /D _USING_V110_SDK71_ /D _MBCS /Gm- /EHa /RTCs /MTd /GS /fp:fast /Zc:wchar_t /Zc:forScope /Zc:inline /Fo".\DEBUG64\\" /Fd".\DEBUG64\VC141.PDB" /Gd /TC D:\PROGRAMMING\CARDBOARD\SRC\CARDSTOCK\LUA\LTM.C
^D:\PROGRAMMING\CARDBOARD\SRC\CARDSTOCK\LUA\LUNDUMP.C
/c /I..\ENET\INCLUDE /I..\INCLUDE /I..\ENGINE /I..\FPSGAME /I..\SHARED /Zi /nologo /W3 /WX- /diagnostics:classic /Od /D WIN32 /D _DEBUG /D _WINDOWS /D _USING_V110_SDK71_ /D _MBCS /Gm- /EHa /RTCs /MTd /GS /fp:fast /Zc:wchar_t /Zc:forScope /Zc:inline /Fo".\DEBUG64\\" /Fd".\DEBUG64\VC141.PDB" /Gd /TC D:\PROGRAMMING\CARDBOARD\SRC\CARDSTOCK\LUA\LUNDUMP.C
^D:\PROGRAMMING\CARDBOARD\SRC\CARDSTOCK\LUA\LUTF8LIB.C
/c /I..\ENET\INCLUDE /I..\INCLUDE /I..\ENGINE /I..\FPSGAME /I..\SHARED /Zi /nologo /W3 /WX- /diagnostics:classic /Od /D WIN32 /D _DEBUG /D _WINDOWS /D _USING_V110_SDK71_ /D _MBCS /Gm- /EHa /RTCs /MTd /GS /fp:fast /Zc:wchar_t /Zc:forScope /Zc:inline /Fo".\DEBUG64\\" /Fd".\DEBUG64\VC141.PDB" /Gd /TC D:\PROGRAMMING\CARDBOARD\SRC\CARDSTOCK\LUA\LUTF8LIB.C
^D:\PROGRAMMING\CARDBOARD\SRC\CARDSTOCK\LUA\LVM.C
/c /I..\ENET\INCLUDE /I..\INCLUDE /I..\ENGINE /I..\FPSGAME /I..\SHARED /Zi /nologo /W3 /WX- /diagnostics:classic /Od /D WIN32 /D _DEBUG /D _WINDOWS /D _USING_V110_SDK71_ /D _MBCS /Gm- /EHa /RTCs /MTd /GS /fp:fast /Zc:wchar_t /Zc:forScope /Zc:inline /Fo".\DEBUG64\\" /Fd".\DEBUG64\VC141.PDB" /Gd /TC D:\PROGRAMMING\CARDBOARD\SRC\CARDSTOCK\LUA\LVM.C
^D:\PROGRAMMING\CARDBOARD\SRC\CARDSTOCK\LUA\LZIO.C
/c /I..\ENET\INCLUDE /I..\INCLUDE /I..\ENGINE /I..\FPSGAME /I..\SHARED /Zi /nologo /W3 /WX- /diagnostics:classic /Od /D WIN32 /D _DEBUG /D _WINDOWS /D _USING_V110_SDK71_ /D _MBCS /Gm- /EHa /RTCs /MTd /GS /fp:fast /Zc:wchar_t /Zc:forScope /Zc:inline /Fo".\DEBUG64\\" /Fd".\DEBUG64\VC141.PDB" /Gd /TC D:\PROGRAMMING\CARDBOARD\SRC\CARDSTOCK\LUA\LZIO.C
^D:\PROGRAMMING\CARDBOARD\SRC\FPSGAME\CLIENT.CPP
/c /I..\ENET\INCLUDE /I..\INCLUDE /I..\ENGINE /I..\FPSGAME /I..\SHARED /Zi /nologo /W3 /WX- /diagnostics:classic /Od /D WIN32 /D _DEBUG /D _WINDOWS /D _USING_V110_SDK71_ /D _MBCS /Gm- /EHa /RTCs /MTd /GS /fp:fast /Zc:wchar_t /Zc:forScope /Zc:inline /Fo".\DEBUG64\CLIENT1.OBJ" /Fd".\DEBUG64\VC141.PDB" /Gd /TP D:\PROGRAMMING\CARDBOARD\SRC\FPSGAME\CLIENT.CPP
^D:\PROGRAMMING\CARDBOARD\SRC\FPSGAME\SERVER.CPP
/c /I..\ENET\INCLUDE /I..\INCLUDE /I..\ENGINE /I..\FPSGAME /I..\SHARED /Zi /nologo /W3 /WX- /diagnostics:classic /Od /D WIN32 /D _DEBUG /D _WINDOWS /D _USING_V110_SDK71_ /D _MBCS /Gm- /EHa /RTCs /MTd /GS /fp:fast /Zc:wchar_t /Zc:forScope /Zc:inline /Fo".\DEBUG64\SERVER1.OBJ" /Fd".\DEBUG64\VC141.PDB" /Gd /TP D:\PROGRAMMING\CARDBOARD\SRC\FPSGAME\SERVER.CPP
^C:\USERS\JACOB\CARDBOARD-ENGINE\CARDBOARD\SRC\LUA\LAUXLIB.C
/c /I..\ENET\INCLUDE /I..\INCLUDE /I..\ENGINE /I..\FPSGAME /I..\SHARED /Zi /nologo /W3 /WX- /diagnostics:classic /Od /D WIN32 /D _DEBUG /D _WINDOWS /D _USING_V110_SDK71_ /D _MBCS /Gm- /EHa /RTCs /MTd /GS /fp:fast /Zc:wchar_t /Zc:forScope /Zc:inline /Fo".\DEBUG64\\" /Fd".\DEBUG64\VC141.PDB" /Gd /TC C:\USERS\JACOB\CARDBOARD-ENGINE\CARDBOARD\SRC\LUA\LAUXLIB.C
^C:\USERS\JACOB\CARDBOARD-ENGINE\CARDBOARD\SRC\LUA\LBITLIB.C
/c /I..\ENET\INCLUDE /I..\INCLUDE /I..\ENGINE /I..\FPSGAME /I..\SHARED /Zi /nologo /W3 /WX- /diagnostics:classic /Od /D WIN32 /D _DEBUG /D _WINDOWS /D _USING_V110_SDK71_ /D _MBCS /Gm- /EHa /RTCs /MTd /GS /fp:fast /Zc:wchar_t /Zc:forScope /Zc:inline /Fo".\DEBUG64\\" /Fd".\DEBUG64\VC141.PDB" /Gd /TC C:\USERS\JACOB\CARDBOARD-ENGINE\CARDBOARD\SRC\LUA\LBITLIB.C
^C:\USERS\JACOB\CARDBOARD-ENGINE\CARDBOARD\SRC\LUA\LCOROLIB.C
/c /I..\ENET\INCLUDE /I..\INCLUDE /I..\ENGINE /I..\FPSGAME /I..\SHARED /Zi /nologo /W3 /WX- /diagnostics:classic /Od /D WIN32 /D _DEBUG /D _WINDOWS /D _USING_V110_SDK71_ /D _MBCS /Gm- /EHa /RTCs /MTd /GS /fp:fast /Zc:wchar_t /Zc:forScope /Zc:inline /Fo".\DEBUG64\\" /Fd".\DEBUG64\VC141.PDB" /Gd /TC C:\USERS\JACOB\CARDBOARD-ENGINE\CARDBOARD\SRC\LUA\LCOROLIB.C
^C:\USERS\JACOB\CARDBOARD-ENGINE\CARDBOARD\SRC\LUA\LCTYPE.C
/c /I..\ENET\INCLUDE /I..\INCLUDE /I..\ENGINE /I..\FPSGAME /I..\SHARED /Zi /nologo /W3 /WX- /diagnostics:classic /Od /D WIN32 /D _DEBUG /D _WINDOWS /D _USING_V110_SDK71_ /D _MBCS /Gm- /EHa /RTCs /MTd /GS /fp:fast /Zc:wchar_t /Zc:forScope /Zc:inline /Fo".\DEBUG64\\" /Fd".\DEBUG64\VC141.PDB" /Gd /TC C:\USERS\JACOB\CARDBOARD-ENGINE\CARDBOARD\SRC\LUA\LCTYPE.C
^C:\USERS\JACOB\CARDBOARD-ENGINE\CARDBOARD\SRC\LUA\LDBLIB.C
/c /I..\ENET\INCLUDE /I..\INCLUDE /I..\ENGINE /I..\FPSGAME /I..\SHARED /Zi /nologo /W3 /WX- /diagnostics:classic /Od /D WIN32 /D _DEBUG /D _WINDOWS /D _USING_V110_SDK71_ /D _MBCS /Gm- /EHa /RTCs /MTd /GS /fp:fast /Zc:wchar_t /Zc:forScope /Zc:inline /Fo".\DEBUG64\\" /Fd".\DEBUG64\VC141.PDB" /Gd /TC C:\USERS\JACOB\CARDBOARD-ENGINE\CARDBOARD\SRC\LUA\LDBLIB.C
^C:\USERS\JACOB\CARDBOARD-ENGINE\CARDBOARD\SRC\LUA\LDUMP.C
/c /I..\ENET\INCLUDE /I..\INCLUDE /I..\ENGINE /I..\FPSGAME /I..\SHARED /Zi /nologo /W3 /WX- /diagnostics:classic /Od /D WIN32 /D _DEBUG /D _WINDOWS /D _USING_V110_SDK71_ /D _MBCS /Gm- /EHa /RTCs /MTd /GS /fp:fast /Zc:wchar_t /Zc:forScope /Zc:inline /Fo".\DEBUG64\\" /Fd".\DEBUG64\VC141.PDB" /Gd /TC C:\USERS\JACOB\CARDBOARD-ENGINE\CARDBOARD\SRC\LUA\LDUMP.C
^C:\USERS\JACOB\CARDBOARD-ENGINE\CARDBOARD\SRC\LUA\LFUNC.C
/c /I..\ENET\INCLUDE /I..\INCLUDE /I..\ENGINE /I..\FPSGAME /I..\SHARED /Zi /nologo /W3 /WX- /diagnostics:classic /Od /D WIN32 /D _DEBUG /D _WINDOWS /D _USING_V110_SDK71_ /D _MBCS /Gm- /EHa /RTCs /MTd /GS /fp:fast /Zc:wchar_t /Zc:forScope /Zc:inline /Fo".\DEBUG64\\" /Fd".\DEBUG64\VC141.PDB" /Gd /TC C:\USERS\JACOB\CARDBOARD-ENGINE\CARDBOARD\SRC\LUA\LFUNC.C
^C:\USERS\JACOB\CARDBOARD-ENGINE\CARDBOARD\SRC\LUA\LGC.C
/c /I..\ENET\INCLUDE /I..\INCLUDE /I..\ENGINE /I..\FPSGAME /I..\SHARED /Zi /nologo /W3 /WX- /diagnostics:classic /Od /D WIN32 /D _DEBUG /D _WINDOWS /D _USING_V110_SDK71_ /D _MBCS /Gm- /EHa /RTCs /MTd /GS /fp:fast /Zc:wchar_t /Zc:forScope /Zc:inline /Fo".\DEBUG64\\" /Fd".\DEBUG64\VC141.PDB" /Gd /TC C:\USERS\JACOB\CARDBOARD-ENGINE\CARDBOARD\SRC\LUA\LGC.C
^C:\USERS\JACOB\CARDBOARD-ENGINE\CARDBOARD\SRC\LUA\LINIT.C
/c /I..\ENET\INCLUDE /I..\INCLUDE /I..\ENGINE /I..\FPSGAME /I..\SHARED /Zi /nologo /W3 /WX- /diagnostics:classic /Od /D WIN32 /D _DEBUG /D _WINDOWS /D _USING_V110_SDK71_ /D _MBCS /Gm- /EHa /RTCs /MTd /GS /fp:fast /Zc:wchar_t /Zc:forScope /Zc:inline /Fo".\DEBUG64\\" /Fd".\DEBUG64\VC141.PDB" /Gd /TC C:\USERS\JACOB\CARDBOARD-ENGINE\CARDBOARD\SRC\LUA\LINIT.C
^C:\USERS\JACOB\CARDBOARD-ENGINE\CARDBOARD\SRC\LUA\LIOLIB.C
/c /I..\ENET\INCLUDE /I..\INCLUDE /I..\ENGINE /I..\FPSGAME /I..\SHARED /Zi /nologo /W3 /WX- /diagnostics:classic /Od /D WIN32 /D _DEBUG /D _WINDOWS /D _USING_V110_SDK71_ /D _MBCS /Gm- /EHa /RTCs /MTd /GS /fp:fast /Zc:wchar_t /Zc:forScope /Zc:inline /Fo".\DEBUG64\\" /Fd".\DEBUG64\VC141.PDB" /Gd /TC C:\USERS\JACOB\CARDBOARD-ENGINE\CARDBOARD\SRC\LUA\LIOLIB.C
^C:\USERS\JACOB\CARDBOARD-ENGINE\CARDBOARD\SRC\LUA\LLEX.C
/c /I..\ENET\INCLUDE /I..\INCLUDE /I..\ENGINE /I..\FPSGAME /I..\SHARED /Zi /nologo /W3 /WX- /diagnostics:classic /Od /D WIN32 /D _DEBUG /D _WINDOWS /D _USING_V110_SDK71_ /D _MBCS /Gm- /EHa /RTCs /MTd /GS /fp:fast /Zc:wchar_t /Zc:forScope /Zc:inline /Fo".\DEBUG64\\" /Fd".\DEBUG64\VC141.PDB" /Gd /TC C:\USERS\JACOB\CARDBOARD-ENGINE\CARDBOARD\SRC\LUA\LLEX.C
^C:\USERS\JACOB\CARDBOARD-ENGINE\CARDBOARD\SRC\LUA\LMATHLIB.C
/c /I..\ENET\INCLUDE /I..\INCLUDE /I..\ENGINE /I..\FPSGAME /I..\SHARED /Zi /nologo /W3 /WX- /diagnostics:classic /Od /D WIN32 /D _DEBUG /D _WINDOWS /D _USING_V110_SDK71_ /D _MBCS /Gm- /EHa /RTCs /MTd /GS /fp:fast /Zc:wchar_t /Zc:forScope /Zc:inline /Fo".\DEBUG64\\" /Fd".\DEBUG64\VC141.PDB" /Gd /TC C:\USERS\JACOB\CARDBOARD-ENGINE\CARDBOARD\SRC\LUA\LMATHLIB.C
^C:\USERS\JACOB\CARDBOARD-ENGINE\CARDBOARD\SRC\LUA\LMEM.C
/c /I..\ENET\INCLUDE /I..\INCLUDE /I..\ENGINE /I..\FPSGAME /I..\SHARED /Zi /nologo /W3 /WX- /diagnostics:classic /Od /D WIN32 /D _DEBUG /D _WINDOWS /D _USING_V110_SDK71_ /D _MBCS /Gm- /EHa /RTCs /MTd /GS /fp:fast /Zc:wchar_t /Zc:forScope /Zc:inline /Fo".\DEBUG64\\" /Fd".\DEBUG64\VC141.PDB" /Gd /TC C:\USERS\JACOB\CARDBOARD-ENGINE\CARDBOARD\SRC\LUA\LMEM.C
^C:\USERS\JACOB\CARDBOARD-ENGINE\CARDBOARD\SRC\LUA\LOADLIB.C
/c /I..\ENET\INCLUDE /I..\INCLUDE /I..\ENGINE /I..\FPSGAME /I..\SHARED /Zi /nologo /W3 /WX- /diagnostics:classic /Od /D WIN32 /D _DEBUG /D _WINDOWS /D _USING_V110_SDK71_ /D _MBCS /Gm- /EHa /RTCs /MTd /GS /fp:fast /Zc:wchar_t /Zc:forScope /Zc:inline /Fo".\DEBUG64\\" /Fd".\DEBUG64\VC141.PDB" /Gd /TC C:\USERS\JACOB\CARDBOARD-ENGINE\CARDBOARD\SRC\LUA\LOADLIB.C
^C:\USERS\JACOB\CARDBOARD-ENGINE\CARDBOARD\SRC\LUA\LOPCODES.C
/c /I..\ENET\INCLUDE /I..\INCLUDE /I..\ENGINE /I..\FPSGAME /I..\SHARED /Zi /nologo /W3 /WX- /diagnostics:classic /Od /D WIN32 /D _DEBUG /D _WINDOWS /D _USING_V110_SDK71_ /D _MBCS /Gm- /EHa /RTCs /MTd /GS /fp:fast /Zc:wchar_t /Zc:forScope /Zc:inline /Fo".\DEBUG64\\" /Fd".\DEBUG64\VC141.PDB" /Gd /TC C:\USERS\JACOB\CARDBOARD-ENGINE\CARDBOARD\SRC\LUA\LOPCODES.C
^C:\USERS\JACOB\CARDBOARD-ENGINE\CARDBOARD\SRC\LUA\LOSLIB.C
/c /I..\ENET\INCLUDE /I..\INCLUDE /I..\ENGINE /I..\FPSGAME /I..\SHARED /Zi /nologo /W3 /WX- /diagnostics:classic /Od /D WIN32 /D _DEBUG /D _WINDOWS /D _USING_V110_SDK71_ /D _MBCS /Gm- /EHa /RTCs /MTd /GS /fp:fast /Zc:wchar_t /Zc:forScope /Zc:inline /Fo".\DEBUG64\\" /Fd".\DEBUG64\VC141.PDB" /Gd /TC C:\USERS\JACOB\CARDBOARD-ENGINE\CARDBOARD\SRC\LUA\LOSLIB.C
^C:\USERS\JACOB\CARDBOARD-ENGINE\CARDBOARD\SRC\LUA\LPARSER.C
/c /I..\ENET\INCLUDE /I..\INCLUDE /I..\ENGINE /I..\FPSGAME /I..\SHARED /Zi /nologo /W3 /WX- /diagnostics:classic /Od /D WIN32 /D _DEBUG /D _WINDOWS /D _USING_V110_SDK71_ /D _MBCS /Gm- /EHa /RTCs /MTd /GS /fp:fast /Zc:wchar_t /Zc:forScope /Zc:inline /Fo".\DEBUG64\\" /Fd".\DEBUG64\VC141.PDB" /Gd /TC C:\USERS\JACOB\CARDBOARD-ENGINE\CARDBOARD\SRC\LUA\LPARSER.C
^C:\USERS\JACOB\CARDBOARD-ENGINE\CARDBOARD\SRC\LUA\LSTATE.C
/c /I..\ENET\INCLUDE /I..\INCLUDE /I..\ENGINE /I..\FPSGAME /I..\SHARED /Zi /nologo /W3 /WX- /diagnostics:classic /Od /D WIN32 /D _DEBUG /D _WINDOWS /D _USING_V110_SDK71_ /D _MBCS /Gm- /EHa /RTCs /MTd /GS /fp:fast /Zc:wchar_t /Zc:forScope /Zc:inline /Fo".\DEBUG64\\" /Fd".\DEBUG64\VC141.PDB" /Gd /TC C:\USERS\JACOB\CARDBOARD-ENGINE\CARDBOARD\SRC\LUA\LSTATE.C
^C:\USERS\JACOB\CARDBOARD-ENGINE\CARDBOARD\SRC\LUA\LSTRING.C
/c /I..\ENET\INCLUDE /I..\INCLUDE /I..\ENGINE /I..\FPSGAME /I..\SHARED /Zi /nologo /W3 /WX- /diagnostics:classic /Od /D WIN32 /D _DEBUG /D _WINDOWS /D _USING_V110_SDK71_ /D _MBCS /Gm- /EHa /RTCs /MTd /GS /fp:fast /Zc:wchar_t /Zc:forScope /Zc:inline /Fo".\DEBUG64\\" /Fd".\DEBUG64\VC141.PDB" /Gd /TC C:\USERS\JACOB\CARDBOARD-ENGINE\CARDBOARD\SRC\LUA\LSTRING.C
^C:\USERS\JACOB\CARDBOARD-ENGINE\CARDBOARD\SRC\LUA\LSTRLIB.C
/c /I..\ENET\INCLUDE /I..\INCLUDE /I..\ENGINE /I..\FPSGAME /I..\SHARED /Zi /nologo /W3 /WX- /diagnostics:classic /Od /D WIN32 /D _DEBUG /D _WINDOWS /D _USING_V110_SDK71_ /D _MBCS /Gm- /EHa /RTCs /MTd /GS /fp:fast /Zc:wchar_t /Zc:forScope /Zc:inline /Fo".\DEBUG64\\" /Fd".\DEBUG64\VC141.PDB" /Gd /TC C:\USERS\JACOB\CARDBOARD-ENGINE\CARDBOARD\SRC\LUA\LSTRLIB.C
^C:\USERS\JACOB\CARDBOARD-ENGINE\CARDBOARD\SRC\LUA\LTABLIB.C
/c /I..\ENET\INCLUDE /I..\INCLUDE /I..\ENGINE /I..\FPSGAME /I..\SHARED /Zi /nologo /W3 /WX- /diagnostics:classic /Od /D WIN32 /D _DEBUG /D _WINDOWS /D _USING_V110_SDK71_ /D _MBCS /Gm- /EHa /RTCs /MTd /GS /fp:fast /Zc:wchar_t /Zc:forScope /Zc:inline /Fo".\DEBUG64\\" /Fd".\DEBUG64\VC141.PDB" /Gd /TC C:\USERS\JACOB\CARDBOARD-ENGINE\CARDBOARD\SRC\LUA\LTABLIB.C
^C:\USERS\JACOB\CARDBOARD-ENGINE\CARDBOARD\SRC\LUA\LUNDUMP.C
/c /I..\ENET\INCLUDE /I..\INCLUDE /I..\ENGINE /I..\FPSGAME /I..\SHARED /Zi /nologo /W3 /WX- /diagnostics:classic /Od /D WIN32 /D _DEBUG /D _WINDOWS /D _USING_V110_SDK71_ /D _MBCS /Gm- /EHa /RTCs /MTd /GS /fp:fast /Zc:wchar_t /Zc:forScope /Zc:inline /Fo".\DEBUG64\\" /Fd".\DEBUG64\VC141.PDB" /Gd /TC C:\USERS\JACOB\CARDBOARD-ENGINE\CARDBOARD\SRC\LUA\LUNDUMP.C
^C:\USERS\JACOB\CARDBOARD-ENGINE\CARDBOARD\SRC\LUA\LUTF8LIB.C
/c /I..\ENET\INCLUDE /I..\INCLUDE /I..\ENGINE /I..\FPSGAME /I..\SHARED /Zi /nologo /W3 /WX- /diagnostics:classic /Od /D WIN32 /D _DEBUG /D _WINDOWS /D _USING_V110_SDK71_ /D _MBCS /Gm- /EHa /RTCs /MTd /GS /fp:fast /Zc:wchar_t /Zc:forScope /Zc:inline /Fo".\DEBUG64\\" /Fd".\DEBUG64\VC141.PDB" /Gd /TC C:\USERS\JACOB\CARDBOARD-ENGINE\CARDBOARD\SRC\LUA\LUTF8LIB.C
^C:\USERS\JACOB\CARDBOARD-ENGINE\CARDBOARD\SRC\LUA\LZIO.C
/c /I..\ENET\INCLUDE /I..\INCLUDE /I..\ENGINE /I..\FPSGAME /I..\SHARED /Zi /nologo /W3 /WX- /diagnostics:classic /Od /D WIN32 /D _DEBUG /D _WINDOWS /D _USING_V110_SDK71_ /D _MBCS /Gm- /EHa /RTCs /MTd /GS /fp:fast /Zc:wchar_t /Zc:forScope /Zc:inline /Fo".\DEBUG64\\" /Fd".\DEBUG64\VC141.PDB" /Gd /TC C:\USERS\JACOB\CARDBOARD-ENGINE\CARDBOARD\SRC\LUA\LZIO.C
^C:\USERS\JACOB\CARDBOARD-ENGINE\CARDBOARD\SRC\LUA\LAPI.C
/c /I..\ENET\INCLUDE /I..\INCLUDE /I..\ENGINE /I..\FPSGAME /I..\SHARED /Zi /nologo /W3 /WX- /diagnostics:classic /Od /D WIN32 /D _DEBUG /D _WINDOWS /D _USING_V110_SDK71_ /D _MBCS /Gm- /EHa /RTCs /MTd /GS /fp:fast /Zc:wchar_t /Zc:forScope /Zc:inline /Fo".\DEBUG64\\" /Fd".\DEBUG64\VC141.PDB" /Gd /TC C:\USERS\JACOB\CARDBOARD-ENGINE\CARDBOARD\SRC\LUA\LAPI.C
^C:\USERS\JACOB\CARDBOARD-ENGINE\CARDBOARD\SRC\LUA\LCODE.C
/c /I..\ENET\INCLUDE /I..\INCLUDE /I..\ENGINE /I..\FPSGAME /I..\SHARED /Zi /nologo /W3 /WX- /diagnostics:classic /Od /D WIN32 /D _DEBUG /D _WINDOWS /D _USING_V110_SDK71_ /D _MBCS /Gm- /EHa /RTCs /MTd /GS /fp:fast /Zc:wchar_t /Zc:forScope /Zc:inline /Fo".\DEBUG64\\" /Fd".\DEBUG64\VC141.PDB" /Gd /TC C:\USERS\JACOB\CARDBOARD-ENGINE\CARDBOARD\SRC\LUA\LCODE.C
^C:\USERS\JACOB\CARDBOARD-ENGINE\CARDBOARD\SRC\LUA\LDEBUG.C
/c /I..\ENET\INCLUDE /I..\INCLUDE /I..\ENGINE /I..\FPSGAME /I..\SHARED /Zi /nologo /W3 /WX- /diagnostics:classic /Od /D WIN32 /D _DEBUG /D _WINDOWS /D _USING_V110_SDK71_ /D _MBCS /Gm- /EHa /RTCs /MTd /GS /fp:fast /Zc:wchar_t /Zc:forScope /Zc:inline /Fo".\DEBUG64\\" /Fd".\DEBUG64\VC141.PDB" /Gd /TC C:\USERS\JACOB\CARDBOARD-ENGINE\CARDBOARD\SRC\LUA\LDEBUG.C
^C:\USERS\JACOB\CARDBOARD-ENGINE\CARDBOARD\SRC\LUA\LDO.C
/c /I..\ENET\INCLUDE /I..\INCLUDE /I..\ENGINE /I..\FPSGAME /I..\SHARED /Zi /nologo /W3 /WX- /diagnostics:classic /Od /D WIN32 /D _DEBUG /D _WINDOWS /D _USING_V110_SDK71_ /D _MBCS /Gm- /EHa /RTCs /MTd /GS /fp:fast /Zc:wchar_t /Zc:forScope /Zc:inline /Fo".\DEBUG64\\" /Fd".\DEBUG64\VC141.PDB" /Gd /TC C:\USERS\JACOB\CARDBOARD-ENGINE\CARDBOARD\SRC\LUA\LDO.C
^C:\USERS\JACOB\CARDBOARD-ENGINE\CARDBOARD\SRC\LUA\LOBJECT.C
/c /I..\ENET\INCLUDE /I..\INCLUDE /I..\ENGINE /I..\FPSGAME /I..\SHARED /Zi /nologo /W3 /WX- /diagnostics:classic /Od /D WIN32 /D _DEBUG /D _WINDOWS /D _USING_V110_SDK71_ /D _MBCS /Gm- /EHa /RTCs /MTd /GS /fp:fast /Zc:wchar_t /Zc:forScope /Zc:inline /Fo".\DEBUG64\\" /Fd".\DEBUG64\VC141.PDB" /Gd /TC C:\USERS\JACOB\CARDBOARD-ENGINE\CARDBOARD\SRC\LUA\LOBJECT.C
^C:\USERS\JACOB\CARDBOARD-ENGINE\CARDBOARD\SRC\LUA\LTABLE.C
/c /I..\ENET\INCLUDE /I..\INCLUDE /I..\ENGINE /I..\FPSGAME /I..\SHARED /Zi /nologo /W3 /WX- /diagnostics:classic /Od /D WIN32 /D _DEBUG /D _WINDOWS /D _USING_V110_SDK71_ /D _MBCS /Gm- /EHa /RTCs /MTd /GS /fp:fast /Zc:wchar_t /Zc:forScope /Zc:inline /Fo".\DEBUG64\\" /Fd".\DEBUG64\VC141.PDB" /Gd /TC C:\USERS\JACOB\CARDBOARD-ENGINE\CARDBOARD\SRC\LUA\LTABLE.C
^C:\USERS\JACOB\CARDBOARD-ENGINE\CARDBOARD\SRC\LUA\LTM.C
/c /I..\ENET\INCLUDE /I..\INCLUDE /I..\ENGINE /I..\FPSGAME /I..\SHARED /Zi /nologo /W3 /WX- /diagnostics:classic /Od /D WIN32 /D _DEBUG /D _WINDOWS /D _USING_V110_SDK71_ /D _MBCS /Gm- /EHa /RTCs /MTd /GS /fp:fast /Zc:wchar_t /Zc:forScope /Zc:inline /Fo".\DEBUG64\\" /Fd".\DEBUG64\VC141.PDB" /Gd /TC C:\USERS\JACOB\CARDBOARD-ENGINE\CARDBOARD\SRC\LUA\LTM.C
^C:\USERS\JACOB\CARDBOARD-ENGINE\CARDBOARD\SRC\LUA\LVM.C
/c /I..\ENET\INCLUDE /I..\INCLUDE /I..\ENGINE /I..\FPSGAME /I..\SHARED /Zi /nologo /W3 /WX- /diagnostics:classic /Od /D WIN32 /D _DEBUG /D _WINDOWS /D _USING_V110_SDK71_ /D _MBCS /Gm- /EHa /RTCs /MTd /GS /fp:fast /Zc:wchar_t /Zc:forScope /Zc:inline /Fo".\DEBUG64\\" /Fd".\DEBUG64\VC141.PDB" /Gd /TC C:\USERS\JACOB\CARDBOARD-ENGINE\CARDBOARD\SRC\LUA\LVM.C
^C:\USERS\JACOB\CARDBOARD-ENGINE\CARDBOARD\SRC\CARDSTOCK\CARDSTOCK.CPP
/c /I..\ENET\INCLUDE /I..\INCLUDE /I..\ENGINE /I..\FPSGAME /I..\SHARED /Zi /nologo /W3 /WX- /diagnostics:classic /Od /D WIN32 /D _DEBUG /D _WINDOWS /D _USING_V110_SDK71_ /D _MBCS /Gm- /EHa /RTCs /MTd /GS /fp:fast /Zc:wchar_t /Zc:forScope /Zc:inline /Fo".\DEBUG64\\" /Fd".\DEBUG64\VC141.PDB" /Gd /TP C:\USERS\JACOB\CARDBOARD-ENGINE\CARDBOARD\SRC\CARDSTOCK\CARDSTOCK.CPP
^C:\USERS\JACOB\CARDBOARD-ENGINE\CARDBOARD\SRC\VCPP\LUAINTERFACE.CPP
/c /I..\ENET\INCLUDE /I..\INCLUDE /I..\ENGINE /I..\FPSGAME /I..\SHARED /Zi /nologo /W3 /WX- /diagnostics:classic /Od /D WIN32 /D _DEBUG /D _WINDOWS /D _USING_V110_SDK71_ /D _MBCS /Gm- /EHa /RTCs /MTd /GS /fp:fast /Zc:wchar_t /Zc:forScope /Zc:inline /Fo".\DEBUG64\\" /Fd".\DEBUG64\VC141.PDB" /Gd /TP C:\USERS\JACOB\CARDBOARD-ENGINE\CARDBOARD\SRC\VCPP\LUAINTERFACE.CPP
^C:\USERS\JACOB\CARDBOARD-ENGINE\CARDBOARD\SRC\LUA\LBASELIB.C
/c /I..\ENET\INCLUDE /I..\INCLUDE /I..\ENGINE /I..\FPSGAME /I..\SHARED /Zi /nologo /W3 /WX- /diagnostics:classic /Od /D WIN32 /D _DEBUG /D _WINDOWS /D _USING_V110_SDK71_ /D _MBCS /Gm- /EHa /RTCs /MTd /GS /fp:fast /Zc:wchar_t /Zc:forScope /Zc:inline /Fo".\DEBUG64\\" /Fd".\DEBUG64\VC141.PDB" /Gd /TC C:\USERS\JACOB\CARDBOARD-ENGINE\CARDBOARD\SRC\LUA\LBASELIB.C
^C:\USERS\JACOB\CARDBOARD-ENGINE\CARDBOARD\SRC\ENGINE\PCH.CPP
/c /I..\ENET\INCLUDE /I..\INCLUDE /I..\ENGINE /I..\FPSGAME /I..\SHARED /Zi /nologo /W3 /WX- /diagnostics:classic /Od /D WIN32 /D _DEBUG /D _WINDOWS /D _USING_V110_SDK71_ /D _MBCS /Gm- /EHa /RTCs /MTd /GS /fp:fast /Zc:wchar_t /Zc:forScope /Zc:inline /Yc"engine.h" /Fp".\DEBUG64\ENGINE.PCH" /Fo".\DEBUG64\PCH1.OBJ" /Fd".\DEBUG64\VC141.PDB" /Gd /TP C:\USERS\JACOB\CARDBOARD-ENGINE\CARDBOARD\SRC\ENGINE\PCH.CPP
^C:\USERS\JACOB\CARDBOARD-ENGINE\CARDBOARD\SRC\SHARED\PCH.CPP
/c /I..\ENET\INCLUDE /I..\INCLUDE /I..\ENGINE /I..\FPSGAME /I..\SHARED /Zi /nologo /W3 /WX- /diagnostics:classic /Od /D WIN32 /D _DEBUG /D _WINDOWS /D _USING_V110_SDK71_ /D _MBCS /Gm- /EHa /RTCs /MTd /GS /fp:fast /Zc:wchar_t /Zc:forScope /Zc:inline /Yc"cube.h" /Fp".\DEBUG64\CUBE.PCH" /Fo".\DEBUG64\\" /Fd".\DEBUG64\VC141.PDB" /Gd /TP C:\USERS\JACOB\CARDBOARD-ENGINE\CARDBOARD\SRC\SHARED\PCH.CPP
^C:\USERS\JACOB\CARDBOARD-ENGINE\CARDBOARD\SRC\FPSGAME\PCH.CPP
/c /I..\ENET\INCLUDE /I..\INCLUDE /I..\ENGINE /I..\FPSGAME /I..\SHARED /Zi /nologo /W3 /WX- /diagnostics:classic /Od /D WIN32 /D _DEBUG /D _WINDOWS /D _USING_V110_SDK71_ /D _MBCS /Gm- /EHa /RTCs /MTd /GS /fp:fast /Zc:wchar_t /Zc:forScope /Zc:inline /Yc"game.h" /Fp".\DEBUG64\GAME.PCH" /Fo".\DEBUG64\PCH2.OBJ" /Fd".\DEBUG64\VC141.PDB" /Gd /TP C:\USERS\JACOB\CARDBOARD-ENGINE\CARDBOARD\SRC\FPSGAME\PCH.CPP
^C:\USERS\JACOB\CARDBOARD-ENGINE\CARDBOARD\SRC\ENGINE\3DGUI.CPP
/c /I..\ENET\INCLUDE /I..\INCLUDE /I..\ENGINE /I..\FPSGAME /I..\SHARED /Zi /nologo /W3 /WX- /diagnostics:classic /Od /D WIN32 /D _DEBUG /D _WINDOWS /D _USING_V110_SDK71_ /D _MBCS /Gm- /EHa /RTCs /MTd /GS /fp:fast /Zc:wchar_t /Zc:forScope /Zc:inline /Fo".\DEBUG64\\" /Fd".\DEBUG64\VC141.PDB" /Gd /TP C:\USERS\JACOB\CARDBOARD-ENGINE\CARDBOARD\SRC\ENGINE\3DGUI.CPP
^C:\USERS\JACOB\CARDBOARD-ENGINE\CARDBOARD\SRC\ENGINE\BIH.CPP
/c /I..\ENET\INCLUDE /I..\INCLUDE /I..\ENGINE /I..\FPSGAME /I..\SHARED /Zi /nologo /W3 /WX- /diagnostics:classic /Od /D WIN32 /D _DEBUG /D _WINDOWS /D _USING_V110_SDK71_ /D _MBCS /Gm- /EHa /RTCs /MTd /GS /fp:fast /Zc:wchar_t /Zc:forScope /Zc:inline /Fo".\DEBUG64\\" /Fd".\DEBUG64\VC141.PDB" /Gd /TP C:\USERS\JACOB\CARDBOARD-ENGINE\CARDBOARD\SRC\ENGINE\BIH.CPP
^C:\USERS\JACOB\CARDBOARD-ENGINE\CARDBOARD\SRC\ENGINE\BLEND.CPP
/c /I..\ENET\INCLUDE /I..\INCLUDE /I..\ENGINE /I..\FPSGAME /I..\SHARED /Zi /nologo /W3 /WX- /diagnostics:classic /Od /D WIN32 /D _DEBUG /D _WINDOWS /D _USING_V110_SDK71_ /D _MBCS /Gm- /EHa /RTCs /MTd /GS /fp:fast /Zc:wchar_t /Zc:forScope /Zc:inline /Fo".\DEBUG64\\" /Fd".\DEBUG64\VC141.PDB" /Gd /TP C:\USERS\JACOB\CARDBOARD-ENGINE\CARDBOARD\SRC\ENGINE\BLEND.CPP
^C:\USERS\JACOB\CARDBOARD-ENGINE\CARDBOARD\SRC\ENGINE\BLOB.CPP
/c /I..\ENET\INCLUDE /I..\INCLUDE /I..\ENGINE /I..\FPSGAME /I..\SHARED /Zi /nologo /W3 /WX- /diagnostics:classic /Od /D WIN32 /D _DEBUG /D _WINDOWS /D _USING_V110_SDK71_ /D _MBCS /Gm- /EHa /RTCs /MTd /GS /fp:fast /Zc:wchar_t /Zc:forScope /Zc:inline /Fo".\DEBUG64\\" /Fd".\DEBUG64\VC141.PDB" /Gd /TP C:\USERS\JACOB\CARDBOARD-ENGINE\CARDBOARD\SRC\ENGINE\BLOB.CPP
^C:\USERS\JACOB\CARDBOARD-ENGINE\CARDBOARD\SRC\ENGINE\CLIENT.CPP
/c /I..\ENET\INCLUDE /I..\INCLUDE /I..\ENGINE /I..\FPSGAME /I..\SHARED /Zi /nologo /W3 /WX- /diagnostics:classic /Od /D WIN32 /D _DEBUG /D _WINDOWS /D _USING_V110_SDK71_ /D _MBCS /Gm- /EHa /RTCs /MTd /GS /fp:fast /Zc:wchar_t /Zc:forScope /Zc:inline /Fo".\DEBUG64\\" /Fd".\DEBUG64\VC141.PDB" /Gd /TP C:\USERS\JACOB\CARDBOARD-ENGINE\CARDBOARD\SRC\ENGINE\CLIENT.CPP
^C:\USERS\JACOB\CARDBOARD-ENGINE\CARDBOARD\SRC\ENGINE\COMMAND.CPP
/c /I..\ENET\INCLUDE /I..\INCLUDE /I..\ENGINE /I..\FPSGAME /I..\SHARED /Zi /nologo /W3 /WX- /diagnostics:classic /Od /D WIN32 /D _DEBUG /D _WINDOWS /D _USING_V110_SDK71_ /D _MBCS /Gm- /EHa /RTCs /MTd /GS /fp:fast /Zc:wchar_t /Zc:forScope /Zc:inline /Fo".\DEBUG64\\" /Fd".\DEBUG64\VC141.PDB" /Gd /TP C:\USERS\JACOB\CARDBOARD-ENGINE\CARDBOARD\SRC\ENGINE\COMMAND.CPP
^C:\USERS\JACOB\CARDBOARD-ENGINE\CARDBOARD\SRC\ENGINE\CONSOLE.CPP
/c /I..\ENET\INCLUDE /I..\INCLUDE /I..\ENGINE /I..\FPSGAME /I..\SHARED /Zi /nologo /W3 /WX- /diagnostics:classic /Od /D WIN32 /D _DEBUG /D _WINDOWS /D _USING_V110_SDK71_ /D _MBCS /Gm- /EHa /RTCs /MTd /GS /fp:fast /Zc:wchar_t /Zc:forScope /Zc:inline /Fo".\DEBUG64\\" /Fd".\DEBUG64\VC141.PDB" /Gd /TP C:\USERS\JACOB\CARDBOARD-ENGINE\CARDBOARD\SRC\ENGINE\CONSOLE.CPP
^C:\USERS\JACOB\CARDBOARD-ENGINE\CARDBOARD\SRC\ENGINE\CUBELOADER.CPP
/c /I..\ENET\INCLUDE /I..\INCLUDE /I..\ENGINE /I..\FPSGAME /I..\SHARED /Zi /nologo /W3 /WX- /diagnostics:classic /Od /D WIN32 /D _DEBUG /D _WINDOWS /D _USING_V110_SDK71_ /D _MBCS /Gm- /EHa /RTCs /MTd /GS /fp:fast /Zc:wchar_t /Zc:forScope /Zc:inline /Fo".\DEBUG64\\" /Fd".\DEBUG64\VC141.PDB" /Gd /TP C:\USERS\JACOB\CARDBOARD-ENGINE\CARDBOARD\SRC\ENGINE\CUBELOADER.CPP
^C:\USERS\JACOB\CARDBOARD-ENGINE\CARDBOARD\SRC\ENGINE\DECAL.CPP
/c /I..\ENET\INCLUDE /I..\INCLUDE /I..\ENGINE /I..\FPSGAME /I..\SHARED /Zi /nologo /W3 /WX- /diagnostics:classic /Od /D WIN32 /D _DEBUG /D _WINDOWS /D _USING_V110_SDK71_ /D _MBCS /Gm- /EHa /RTCs /MTd /GS /fp:fast /Zc:wchar_t /Zc:forScope /Zc:inline /Fo".\DEBUG64\\" /Fd".\DEBUG64\VC141.PDB" /Gd /TP C:\USERS\JACOB\CARDBOARD-ENGINE\CARDBOARD\SRC\ENGINE\DECAL.CPP
^C:\USERS\JACOB\CARDBOARD-ENGINE\CARDBOARD\SRC\ENGINE\DYNLIGHT.CPP
/c /I..\ENET\INCLUDE /I..\INCLUDE /I..\ENGINE /I..\FPSGAME /I..\SHARED /Zi /nologo /W3 /WX- /diagnostics:classic /Od /D WIN32 /D _DEBUG /D _WINDOWS /D _USING_V110_SDK71_ /D _MBCS /Gm- /EHa /RTCs /MTd /GS /fp:fast /Zc:wchar_t /Zc:forScope /Zc:inline /Fo".\DEBUG64\\" /Fd".\DEBUG64\VC141.PDB" /Gd /TP C:\USERS\JACOB\CARDBOARD-ENGINE\CARDBOARD\SRC\ENGINE\DYNLIGHT.CPP
^C:\USERS\JACOB\CARDBOARD-ENGINE\CARDBOARD\SRC\ENGINE\GLARE.CPP
/c /I..\ENET\INCLUDE /I..\INCLUDE /I..\ENGINE /I..\FPSGAME /I..\SHARED /Zi /nologo /W3 /WX- /diagnostics:classic /Od /D WIN32 /D _DEBUG /D _WINDOWS /D _USING_V110_SDK71_ /D _MBCS /Gm- /EHa /RTCs /MTd /GS /fp:fast /Zc:wchar_t /Zc:forScope /Zc:inline /Fo".\DEBUG64\\" /Fd".\DEBUG64\VC141.PDB" /Gd /TP C:\USERS\JACOB\CARDBOARD-ENGINE\CARDBOARD\SRC\ENGINE\GLARE.CPP
^C:\USERS\JACOB\CARDBOARD-ENGINE\CARDBOARD\SRC\ENGINE\GRASS.CPP
/c /I..\ENET\INCLUDE /I..\INCLUDE /I..\ENGINE /I..\FPSGAME /I..\SHARED /Zi /nologo /W3 /WX- /diagnostics:classic /Od /D WIN32 /D _DEBUG /D _WINDOWS /D _USING_V110_SDK71_ /D _MBCS /Gm- /EHa /RTCs /MTd /GS /fp:fast /Zc:wchar_t /Zc:forScope /Zc:inline /Fo".\DEBUG64\\" /Fd".\DEBUG64\VC141.PDB" /Gd /TP C:\USERS\JACOB\CARDBOARD-ENGINE\CARDBOARD\SRC\ENGINE\GRASS.CPP
^C:\USERS\JACOB\CARDBOARD-ENGINE\CARDBOARD\SRC\ENGINE\LIGHTMAP.CPP
/c /I..\ENET\INCLUDE /I..\INCLUDE /I..\ENGINE /I..\FPSGAME /I..\SHARED /Zi /nologo /W3 /WX- /diagnostics:classic /Od /D WIN32 /D _DEBUG /D _WINDOWS /D _USING_V110_SDK71_ /D _MBCS /Gm- /EHa /RTCs /MTd /GS /fp:fast /Zc:wchar_t /Zc:forScope /Zc:inline /Fo".\DEBUG64\\" /Fd".\DEBUG64\VC141.PDB" /Gd /TP C:\USERS\JACOB\CARDBOARD-ENGINE\CARDBOARD\SRC\ENGINE\LIGHTMAP.CPP
^C:\USERS\JACOB\CARDBOARD-ENGINE\CARDBOARD\SRC\ENGINE\MAIN.CPP
/c /I..\ENET\INCLUDE /I..\INCLUDE /I..\ENGINE /I..\FPSGAME /I..\SHARED /Zi /nologo /W3 /WX- /diagnostics:classic /Od /D WIN32 /D _DEBUG /D _WINDOWS /D _USING_V110_SDK71_ /D _MBCS /Gm- /EHa /RTCs /MTd /GS /fp:fast /Zc:wchar_t /Zc:forScope /Zc:inline /Fo".\DEBUG64\\" /Fd".\DEBUG64\VC141.PDB" /Gd /TP C:\USERS\JACOB\CARDBOARD-ENGINE\CARDBOARD\SRC\ENGINE\MAIN.CPP
^C:\USERS\JACOB\CARDBOARD-ENGINE\CARDBOARD\SRC\ENGINE\MATERIAL.CPP
/c /I..\ENET\INCLUDE /I..\INCLUDE /I..\ENGINE /I..\FPSGAME /I..\SHARED /Zi /nologo /W3 /WX- /diagnostics:classic /Od /D WIN32 /D _DEBUG /D _WINDOWS /D _USING_V110_SDK71_ /D _MBCS /Gm- /EHa /RTCs /MTd /GS /fp:fast /Zc:wchar_t /Zc:forScope /Zc:inline /Fo".\DEBUG64\\" /Fd".\DEBUG64\VC141.PDB" /Gd /TP C:\USERS\JACOB\CARDBOARD-ENGINE\CARDBOARD\SRC\ENGINE\MATERIAL.CPP
^C:\USERS\JACOB\CARDBOARD-ENGINE\CARDBOARD\SRC\ENGINE\MENUS.CPP
/c /I..\ENET\INCLUDE /I..\INCLUDE /I..\ENGINE /I..\FPSGAME /I..\SHARED /Zi /nologo /W3 /WX- /diagnostics:classic /Od /D WIN32 /D _DEBUG /D _WINDOWS /D _USING_V110_SDK71_ /D _MBCS /Gm- /EHa /RTCs /MTd /GS /fp:fast /Zc:wchar_t /Zc:forScope /Zc:inline /Fo".\DEBUG64\\" /Fd".\DEBUG64\VC141.PDB" /Gd /TP C:\USERS\JACOB\CARDBOARD-ENGINE\CARDBOARD\SRC\ENGINE\MENUS.CPP
^C:\USERS\JACOB\CARDBOARD-ENGINE\CARDBOARD\SRC\ENGINE\MOVIE.CPP
/c /I..\ENET\INCLUDE /I..\INCLUDE /I..\ENGINE /I..\FPSGAME /I..\SHARED /Zi /nologo /W3 /WX- /diagnostics:classic /Od /D WIN32 /D _DEBUG /D _WINDOWS /D _USING_V110_SDK71_ /D _MBCS /Gm- /EHa /RTCs /MTd /GS /fp:fast /Zc:wchar_t /Zc:forScope /Zc:inline /Fo".\DEBUG64\\" /Fd".\DEBUG64\VC141.PDB" /Gd /TP C:\USERS\JACOB\CARDBOARD-ENGINE\CARDBOARD\SRC\ENGINE\MOVIE.CPP
^C:\USERS\JACOB\CARDBOARD-ENGINE\CARDBOARD\SRC\ENGINE\NORMAL.CPP
/c /I..\ENET\INCLUDE /I..\INCLUDE /I..\ENGINE /I..\FPSGAME /I..\SHARED /Zi /nologo /W3 /WX- /diagnostics:classic /Od /D WIN32 /D _DEBUG /D _WINDOWS /D _USING_V110_SDK71_ /D _MBCS /Gm- /EHa /RTCs /MTd /GS /fp:fast /Zc:wchar_t /Zc:forScope /Zc:inline /Fo".\DEBUG64\\" /Fd".\DEBUG64\VC141.PDB" /Gd /TP C:\USERS\JACOB\CARDBOARD-ENGINE\CARDBOARD\SRC\ENGINE\NORMAL.CPP
^C:\USERS\JACOB\CARDBOARD-ENGINE\CARDBOARD\SRC\ENGINE\OCTA.CPP
/c /I..\ENET\INCLUDE /I..\INCLUDE /I..\ENGINE /I..\FPSGAME /I..\SHARED /Zi /nologo /W3 /WX- /diagnostics:classic /Od /D WIN32 /D _DEBUG /D _WINDOWS /D _USING_V110_SDK71_ /D _MBCS /Gm- /EHa /RTCs /MTd /GS /fp:fast /Zc:wchar_t /Zc:forScope /Zc:inline /Fo".\DEBUG64\\" /Fd".\DEBUG64\VC141.PDB" /Gd /TP C:\USERS\JACOB\CARDBOARD-ENGINE\CARDBOARD\SRC\ENGINE\OCTA.CPP
^C:\USERS\JACOB\CARDBOARD-ENGINE\CARDBOARD\SRC\ENGINE\OCTAEDIT.CPP
/c /I..\ENET\INCLUDE /I..\INCLUDE /I..\ENGINE /I..\FPSGAME /I..\SHARED /Zi /nologo /W3 /WX- /diagnostics:classic /Od /D WIN32 /D _DEBUG /D _WINDOWS /D _USING_V110_SDK71_ /D _MBCS /Gm- /EHa /RTCs /MTd /GS /fp:fast /Zc:wchar_t /Zc:forScope /Zc:inline /Fo".\DEBUG64\\" /Fd".\DEBUG64\VC141.PDB" /Gd /TP C:\USERS\JACOB\CARDBOARD-ENGINE\CARDBOARD\SRC\ENGINE\OCTAEDIT.CPP
^C:\USERS\JACOB\CARDBOARD-ENGINE\CARDBOARD\SRC\ENGINE\OCTARENDER.CPP
/c /I..\ENET\INCLUDE /I..\INCLUDE /I..\ENGINE /I..\FPSGAME /I..\SHARED /Zi /nologo /W3 /WX- /diagnostics:classic /Od /D WIN32 /D _DEBUG /D _WINDOWS /D _USING_V110_SDK71_ /D _MBCS /Gm- /EHa /RTCs /MTd /GS /fp:fast /Zc:wchar_t /Zc:forScope /Zc:inline /Fo".\DEBUG64\\" /Fd".\DEBUG64\VC141.PDB" /Gd /TP C:\USERS\JACOB\CARDBOARD-ENGINE\CARDBOARD\SRC\ENGINE\OCTARENDER.CPP
^C:\USERS\JACOB\CARDBOARD-ENGINE\CARDBOARD\SRC\ENGINE\PHYSICS.CPP
/c /I..\ENET\INCLUDE /I..\INCLUDE /I..\ENGINE /I..\FPSGAME /I..\SHARED /Zi /nologo /W3 /WX- /diagnostics:classic /Od /D WIN32 /D _DEBUG /D _WINDOWS /D _USING_V110_SDK71_ /D _MBCS /Gm- /EHa /RTCs /MTd /GS /fp:fast /Zc:wchar_t /Zc:forScope /Zc:inline /Fo".\DEBUG64\\" /Fd".\DEBUG64\VC141.PDB" /Gd /TP C:\USERS\JACOB\CARDBOARD-ENGINE\CARDBOARD\SRC\ENGINE\PHYSICS.CPP
^C:\USERS\JACOB\CARDBOARD-ENGINE\CARDBOARD\SRC\ENGINE\PVS.CPP
/c /I..\ENET\INCLUDE /I..\INCLUDE /I..\ENGINE /I..\FPSGAME /I..\SHARED /Zi /nologo /W3 /WX- /diagnostics:classic /Od /D WIN32 /D _DEBUG /D _WINDOWS /D _USING_V110_SDK71_ /D _MBCS /Gm- /EHa /RTCs /MTd /GS /fp:fast /Zc:wchar_t /Zc:forScope /Zc:inline /Fo".\DEBUG64\\" /Fd".\DEBUG64\VC141.PDB" /Gd /TP C:\USERS\JACOB\CARDBOARD-ENGINE\CARDBOARD\SRC\ENGINE\PVS.CPP
^C:\USERS\JACOB\CARDBOARD-ENGINE\CARDBOARD\SRC\ENGINE\RENDERGL.CPP
/c /I..\ENET\INCLUDE /I..\INCLUDE /I..\ENGINE /I..\FPSGAME /I..\SHARED /Zi /nologo /W3 /WX- /diagnostics:classic /Od /D WIN32 /D _DEBUG /D _WINDOWS /D _USING_V110_SDK71_ /D _MBCS /Gm- /EHa /RTCs /MTd /GS /fp:fast /Zc:wchar_t /Zc:forScope /Zc:inline /Fo".\DEBUG64\\" /Fd".\DEBUG64\VC141.PDB" /Gd /TP C:\USERS\JACOB\CARDBOARD-ENGINE\CARDBOARD\SRC\ENGINE\RENDERGL.CPP
^C:\USERS\JACOB\CARDBOARD-ENGINE\CARDBOARD\SRC\ENGINE\RENDERMODEL.CPP
/c /I..\ENET\INCLUDE /I..\INCLUDE /I..\ENGINE /I..\FPSGAME /I..\SHARED /Zi /nologo /W3 /WX- /diagnostics:classic /Od /D WIN32 /D _DEBUG /D _WINDOWS /D _USING_V110_SDK71_ /D _MBCS /Gm- /EHa /RTCs /MTd /GS /fp:fast /Zc:wchar_t /Zc:forScope /Zc:inline /Fo".\DEBUG64\\" /Fd".\DEBUG64\VC141.PDB" /Gd /TP C:\USERS\JACOB\CARDBOARD-ENGINE\CARDBOARD\SRC\ENGINE\RENDERMODEL.CPP
^C:\USERS\JACOB\CARDBOARD-ENGINE\CARDBOARD\SRC\ENGINE\RENDERPARTICLES.CPP
/c /I..\ENET\INCLUDE /I..\INCLUDE /I..\ENGINE /I..\FPSGAME /I..\SHARED /Zi /nologo /W3 /WX- /diagnostics:classic /Od /D WIN32 /D _DEBUG /D _WINDOWS /D _USING_V110_SDK71_ /D _MBCS /Gm- /EHa /RTCs /MTd /GS /fp:fast /Zc:wchar_t /Zc:forScope /Zc:inline /Fo".\DEBUG64\\" /Fd".\DEBUG64\VC141.PDB" /Gd /TP C:\USERS\JACOB\CARDBOARD-ENGINE\CARDBOARD\SRC\ENGINE\RENDERPARTICLES.CPP
^C:\USERS\JACOB\CARDBOARD-ENGINE\CARDBOARD\SRC\ENGINE\RENDERSKY.CPP
/c /I..\ENET\INCLUDE /I..\INCLUDE /I..\ENGINE /I..\FPSGAME /I..\SHARED /Zi /nologo /W3 /WX- /diagnostics:classic /Od /D WIN32 /D _DEBUG /D _WINDOWS /D _USING_V110_SDK71_ /D _MBCS /Gm- /EHa /RTCs /MTd /GS /fp:fast /Zc:wchar_t /Zc:forScope /Zc:inline /Fo".\DEBUG64\\" /Fd".\DEBUG64\VC141.PDB" /Gd /TP C:\USERS\JACOB\CARDBOARD-ENGINE\CARDBOARD\SRC\ENGINE\RENDERSKY.CPP
^C:\USERS\JACOB\CARDBOARD-ENGINE\CARDBOARD\SRC\ENGINE\RENDERTEXT.CPP
/c /I..\ENET\INCLUDE /I..\INCLUDE /I..\ENGINE /I..\FPSGAME /I..\SHARED /Zi /nologo /W3 /WX- /diagnostics:classic /Od /D WIN32 /D _DEBUG /D _WINDOWS /D _USING_V110_SDK71_ /D _MBCS /Gm- /EHa /RTCs /MTd /GS /fp:fast /Zc:wchar_t /Zc:forScope /Zc:inline /Fo".\DEBUG64\\" /Fd".\DEBUG64\VC141.PDB" /Gd /TP C:\USERS\JACOB\CARDBOARD-ENGINE\CARDBOARD\SRC\ENGINE\RENDERTEXT.CPP
^C:\USERS\JACOB\CARDBOARD-ENGINE\CARDBOARD\SRC\ENGINE\RENDERVA.CPP
/c /I..\ENET\INCLUDE /I..\INCLUDE /I..\ENGINE /I..\FPSGAME /I..\SHARED /Zi /nologo /W3 /WX- /diagnostics:classic /Od /D WIN32 /D _DEBUG /D _WINDOWS /D _USING_V110_SDK71_ /D _MBCS /Gm- /EHa /RTCs /MTd /GS /fp:fast /Zc:wchar_t /Zc:forScope /Zc:inline /Fo".\DEBUG64\\" /Fd".\DEBUG64\VC141.PDB" /Gd /TP C:\USERS\JACOB\CARDBOARD-ENGINE\CARDBOARD\SRC\ENGINE\RENDERVA.CPP
^C:\USERS\JACOB\CARDBOARD-ENGINE\CARDBOARD\SRC\ENGINE\SERVER.CPP
/c /I..\ENET\INCLUDE /I..\INCLUDE /I..\ENGINE /I..\FPSGAME /I..\SHARED /Zi /nologo /W3 /WX- /diagnostics:classic /Od /D WIN32 /D _DEBUG /D _WINDOWS /D _USING_V110_SDK71_ /D _MBCS /Gm- /EHa /RTCs /MTd /GS /fp:fast /Zc:wchar_t /Zc:forScope /Zc:inline /Fo".\DEBUG64\\" /Fd".\DEBUG64\VC141.PDB" /Gd /TP C:\USERS\JACOB\CARDBOARD-ENGINE\CARDBOARD\SRC\ENGINE\SERVER.CPP
^C:\USERS\JACOB\CARDBOARD-ENGINE\CARDBOARD\SRC\ENGINE\SERVERBROWSER.CPP
/c /I..\ENET\INCLUDE /I..\INCLUDE /I..\ENGINE /I..\FPSGAME /I..\SHARED /Zi /nologo /W3 /WX- /diagnostics:classic /Od /D WIN32 /D _DEBUG /D _WINDOWS /D _USING_V110_SDK71_ /D _MBCS /Gm- /EHa /RTCs /MTd /GS /fp:fast /Zc:wchar_t /Zc:forScope /Zc:inline /Fo".\DEBUG64\\" /Fd".\DEBUG64\VC141.PDB" /Gd /TP C:\USERS\JACOB\CARDBOARD-ENGINE\CARDBOARD\SRC\ENGINE\SERVERBROWSER.CPP
^C:\USERS\JACOB\CARDBOARD-ENGINE\CARDBOARD\SRC\ENGINE\SHADER.CPP
/c /I..\ENET\INCLUDE /I..\INCLUDE /I..\ENGINE /I..\FPSGAME /I..\SHARED /Zi /nologo /W3 /WX- /diagnostics:classic /Od /D WIN32 /D _DEBUG /D _WINDOWS /D _USING_V110_SDK71_ /D _MBCS /Gm- /EHa /RTCs /MTd /GS /fp:fast /Zc:wchar_t /Zc:forScope /Zc:inline /Fo".\DEBUG64\\" /Fd".\DEBUG64\VC141.PDB" /Gd /TP C:\USERS\JACOB\CARDBOARD-ENGINE\CARDBOARD\SRC\ENGINE\SHADER.CPP
^C:\USERS\JACOB\CARDBOARD-ENGINE\CARDBOARD\SRC\ENGINE\SHADOWMAP.CPP
/c /I..\ENET\INCLUDE /I..\INCLUDE /I..\ENGINE /I..\FPSGAME /I..\SHARED /Zi /nologo /W3 /WX- /diagnostics:classic /Od /D WIN32 /D _DEBUG /D _WINDOWS /D _USING_V110_SDK71_ /D _MBCS /Gm- /EHa /RTCs /MTd /GS /fp:fast /Zc:wchar_t /Zc:forScope /Zc:inline /Fo".\DEBUG64\\" /Fd".\DEBUG64\VC141.PDB" /Gd /TP C:\USERS\JACOB\CARDBOARD-ENGINE\CARDBOARD\SRC\ENGINE\SHADOWMAP.CPP
^C:\USERS\JACOB\CARDBOARD-ENGINE\CARDBOARD\SRC\ENGINE\SOUND.CPP
/c /I..\ENET\INCLUDE /I..\INCLUDE /I..\ENGINE /I..\FPSGAME /I..\SHARED /Zi /nologo /W3 /WX- /diagnostics:classic /Od /D WIN32 /D _DEBUG /D _WINDOWS /D _USING_V110_SDK71_ /D _MBCS /Gm- /EHa /RTCs /MTd /GS /fp:fast /Zc:wchar_t /Zc:forScope /Zc:inline /Fo".\DEBUG64\\" /Fd".\DEBUG64\VC141.PDB" /Gd /TP C:\USERS\JACOB\CARDBOARD-ENGINE\CARDBOARD\SRC\ENGINE\SOUND.CPP
^C:\USERS\JACOB\CARDBOARD-ENGINE\CARDBOARD\SRC\ENGINE\TEXTURE.CPP
/c /I..\ENET\INCLUDE /I..\INCLUDE /I..\ENGINE /I..\FPSGAME /I..\SHARED /Zi /nologo /W3 /WX- /diagnostics:classic /Od /D WIN32 /D _DEBUG /D _WINDOWS /D _USING_V110_SDK71_ /D _MBCS /Gm- /EHa /RTCs /MTd /GS /fp:fast /Zc:wchar_t /Zc:forScope /Zc:inline /Fo".\DEBUG64\\" /Fd".\DEBUG64\VC141.PDB" /Gd /TP C:\USERS\JACOB\CARDBOARD-ENGINE\CARDBOARD\SRC\ENGINE\TEXTURE.CPP
^C:\USERS\JACOB\CARDBOARD-ENGINE\CARDBOARD\SRC\ENGINE\WATER.CPP
/c /I..\ENET\INCLUDE /I..\INCLUDE /I..\ENGINE /I..\FPSGAME /I..\SHARED /Zi /nologo /W3 /WX- /diagnostics:classic /Od /D WIN32 /D _DEBUG /D _WINDOWS /D _USING_V110_SDK71_ /D _MBCS /Gm- /EHa /RTCs /MTd /GS /fp:fast /Zc:wchar_t /Zc:forScope /Zc:inline /Fo".\DEBUG64\\" /Fd".\DEBUG64\VC141.PDB" /Gd /TP C:\USERS\JACOB\CARDBOARD-ENGINE\CARDBOARD\SRC\ENGINE\WATER.CPP
^C:\USERS\JACOB\CARDBOARD-ENGINE\CARDBOARD\SRC\ENGINE\WORLD.CPP
/c /I..\ENET\INCLUDE /I..\INCLUDE /I..\ENGINE /I..\FPSGAME /I..\SHARED /Zi /nologo /W3 /WX- /diagnostics:classic /Od /D WIN32 /D _DEBUG /D _WINDOWS /D _USING_V110_SDK71_ /D _MBCS /Gm- /EHa /RTCs /MTd /GS /fp:fast /Zc:wchar_t /Zc:forScope /Zc:inline /Fo".\DEBUG64\\" /Fd".\DEBUG64\VC141.PDB" /Gd /TP C:\USERS\JACOB\CARDBOARD-ENGINE\CARDBOARD\SRC\ENGINE\WORLD.CPP
^C:\USERS\JACOB\CARDBOARD-ENGINE\CARDBOARD\SRC\ENGINE\WORLDIO.CPP
/c /I..\ENET\INCLUDE /I..\INCLUDE /I..\ENGINE /I..\FPSGAME /I..\SHARED /Zi /nologo /W3 /WX- /diagnostics:classic /Od /D WIN32 /D _DEBUG /D _WINDOWS /D _USING_V110_SDK71_ /D _MBCS /Gm- /EHa /RTCs /MTd /GS /fp:fast /Zc:wchar_t /Zc:forScope /Zc:inline /Fo".\DEBUG64\\" /Fd".\DEBUG64\VC141.PDB" /Gd /TP C:\USERS\JACOB\CARDBOARD-ENGINE\CARDBOARD\SRC\ENGINE\WORLDIO.CPP
^C:\USERS\JACOB\CARDBOARD-ENGINE\CARDBOARD\SRC\FPSGAME\AI.CPP
/c /I..\ENET\INCLUDE /I..\INCLUDE /I..\ENGINE /I..\FPSGAME /I..\SHARED /Zi /nologo /W3 /WX- /diagnostics:classic /Od /D WIN32 /D _DEBUG /D _WINDOWS /D _USING_V110_SDK71_ /D _MBCS /Gm- /EHa /RTCs /MTd /GS /fp:fast /Zc:wchar_t /Zc:forScope /Zc:inline /Fo".\DEBUG64\\" /Fd".\DEBUG64\VC141.PDB" /Gd /TP C:\USERS\JACOB\CARDBOARD-ENGINE\CARDBOARD\SRC\FPSGAME\AI.CPP
^C:\USERS\JACOB\CARDBOARD-ENGINE\CARDBOARD\SRC\FPSGAME\ENTITIES.CPP
/c /I..\ENET\INCLUDE /I..\INCLUDE /I..\ENGINE /I..\FPSGAME /I..\SHARED /Zi /nologo /W3 /WX- /diagnostics:classic /Od /D WIN32 /D _DEBUG /D _WINDOWS /D _USING_V110_SDK71_ /D _MBCS /Gm- /EHa /RTCs /MTd /GS /fp:fast /Zc:wchar_t /Zc:forScope /Zc:inline /Fo".\DEBUG64\\" /Fd".\DEBUG64\VC141.PDB" /Gd /TP C:\USERS\JACOB\CARDBOARD-ENGINE\CARDBOARD\SRC\FPSGAME\ENTITIES.CPP
^C:\USERS\JACOB\CARDBOARD-ENGINE\CARDBOARD\SRC\FPSGAME\FPS.CPP
/c /I..\ENET\INCLUDE /I..\INCLUDE /I..\ENGINE /I..\FPSGAME /I..\SHARED /Zi /nologo /W3 /WX- /diagnostics:classic /Od /D WIN32 /D _DEBUG /D _WINDOWS /D _USING_V110_SDK71_ /D _MBCS /Gm- /EHa /RTCs /MTd /GS /fp:fast /Zc:wchar_t /Zc:forScope /Zc:inline /Fo".\DEBUG64\\" /Fd".\DEBUG64\VC141.PDB" /Gd /TP C:\USERS\JACOB\CARDBOARD-ENGINE\CARDBOARD\SRC\FPSGAME\FPS.CPP
^C:\USERS\JACOB\CARDBOARD-ENGINE\CARDBOARD\SRC\FPSGAME\MONSTER.CPP
/c /I..\ENET\INCLUDE /I..\INCLUDE /I..\ENGINE /I..\FPSGAME /I..\SHARED /Zi /nologo /W3 /WX- /diagnostics:classic /Od /D WIN32 /D _DEBUG /D _WINDOWS /D _USING_V110_SDK71_ /D _MBCS /Gm- /EHa /RTCs /MTd /GS /fp:fast /Zc:wchar_t /Zc:forScope /Zc:inline /Fo".\DEBUG64\\" /Fd".\DEBUG64\VC141.PDB" /Gd /TP C:\USERS\JACOB\CARDBOARD-ENGINE\CARDBOARD\SRC\FPSGAME\MONSTER.CPP
^C:\USERS\JACOB\CARDBOARD-ENGINE\CARDBOARD\SRC\FPSGAME\MOVABLE.CPP
/c /I..\ENET\INCLUDE /I..\INCLUDE /I..\ENGINE /I..\FPSGAME /I..\SHARED /Zi /nologo /W3 /WX- /diagnostics:classic /Od /D WIN32 /D _DEBUG /D _WINDOWS /D _USING_V110_SDK71_ /D _MBCS /Gm- /EHa /RTCs /MTd /GS /fp:fast /Zc:wchar_t /Zc:forScope /Zc:inline /Fo".\DEBUG64\\" /Fd".\DEBUG64\VC141.PDB" /Gd /TP C:\USERS\JACOB\CARDBOARD-ENGINE\CARDBOARD\SRC\FPSGAME\MOVABLE.CPP
^C:\USERS\JACOB\CARDBOARD-ENGINE\CARDBOARD\SRC\FPSGAME\RENDER.CPP
/c /I..\ENET\INCLUDE /I..\INCLUDE /I..\ENGINE /I..\FPSGAME /I..\SHARED /Zi /nologo /W3 /WX- /diagnostics:classic /Od /D WIN32 /D _DEBUG /D _WINDOWS /D _USING_V110_SDK71_ /D _MBCS /Gm- /EHa /RTCs /MTd /GS /fp:fast /Zc:wchar_t /Zc:forScope /Zc:inline /Fo".\DEBUG64\\" /Fd".\DEBUG64\VC141.PDB" /Gd /TP C:\USERS\JACOB\CARDBOARD-ENGINE\CARDBOARD\SRC\FPSGAME\RENDER.CPP
^C:\USERS\JACOB\CARDBOARD-ENGINE\CARDBOARD\SRC\FPSGAME\SCOREBOARD.CPP
/c /I..\ENET\INCLUDE /I..\INCLUDE /I..\ENGINE /I..\FPSGAME /I..\SHARED /Zi /nologo /W3 /WX- /diagnostics:classic /Od /D WIN32 /D _DEBUG /D _WINDOWS /D _USING_V110_SDK71_ /D _MBCS /Gm- /EHa /RTCs /MTd /GS /fp:fast /Zc:wchar_t /Zc:forScope /Zc:inline /Fo".\DEBUG64\\" /Fd".\DEBUG64\VC141.PDB" /Gd /TP C:\USERS\JACOB\CARDBOARD-ENGINE\CARDBOARD\SRC\FPSGAME\SCOREBOARD.CPP
^C:\USERS\JACOB\CARDBOARD-ENGINE\CARDBOARD\SRC\FPSGAME\WAYPOINT.CPP
/c /I..\ENET\INCLUDE /I..\INCLUDE /I..\ENGINE /I..\FPSGAME /I..\SHARED /Zi /nologo /W3 /WX- /diagnostics:classic /Od /D WIN32 /D _DEBUG /D _WINDOWS /D _USING_V110_SDK71_ /D _MBCS /Gm- /EHa /RTCs /MTd /GS /fp:fast /Zc:wchar_t /Zc:forScope /Zc:inline /Fo".\DEBUG64\\" /Fd".\DEBUG64\VC141.PDB" /Gd /TP C:\USERS\JACOB\CARDBOARD-ENGINE\CARDBOARD\SRC\FPSGAME\WAYPOINT.CPP
^C:\USERS\JACOB\CARDBOARD-ENGINE\CARDBOARD\SRC\FPSGAME\WEAPON.CPP
/c /I..\ENET\INCLUDE /I..\INCLUDE /I..\ENGINE /I..\FPSGAME /I..\SHARED /Zi /nologo /W3 /WX- /diagnostics:classic /Od /D WIN32 /D _DEBUG /D _WINDOWS /D _USING_V110_SDK71_ /D _MBCS /Gm- /EHa /RTCs /MTd /GS /fp:fast /Zc:wchar_t /Zc:forScope /Zc:inline /Fo".\DEBUG64\\" /Fd".\DEBUG64\VC141.PDB" /Gd /TP C:\USERS\JACOB\CARDBOARD-ENGINE\CARDBOARD\SRC\FPSGAME\WEAPON.CPP
^C:\USERS\JACOB\CARDBOARD-ENGINE\CARDBOARD\SRC\SHARED\CRYPTO.CPP
/c /I..\ENET\INCLUDE /I..\INCLUDE /I..\ENGINE /I..\FPSGAME /I..\SHARED /Zi /nologo /W3 /WX- /diagnostics:classic /Od /D WIN32 /D _DEBUG /D _WINDOWS /D _USING_V110_SDK71_ /D _MBCS /Gm- /EHa /RTCs /MTd /GS /fp:fast /Zc:wchar_t /Zc:forScope /Zc:inline /Fo".\DEBUG64\\" /Fd".\DEBUG64\VC141.PDB" /Gd /TP C:\USERS\JACOB\CARDBOARD-ENGINE\CARDBOARD\SRC\SHARED\CRYPTO.CPP
^C:\USERS\JACOB\CARDBOARD-ENGINE\CARDBOARD\SRC\SHARED\GEOM.CPP
/c /I..\ENET\INCLUDE /I..\INCLUDE /I..\ENGINE /I..\FPSGAME /I..\SHARED /Zi /nologo /W3 /WX- /diagnostics:classic /Od /D WIN32 /D _DEBUG /D _WINDOWS /D _USING_V110_SDK71_ /D _MBCS /Gm- /EHa /RTCs /MTd /GS /fp:fast /Zc:wchar_t /Zc:forScope /Zc:inline /Fo".\DEBUG64\\" /Fd".\DEBUG64\VC141.PDB" /Gd /TP C:\USERS\JACOB\CARDBOARD-ENGINE\CARDBOARD\SRC\SHARED\GEOM.CPP
^C:\USERS\JACOB\CARDBOARD-ENGINE\CARDBOARD\SRC\SHARED\GLEMU.CPP
/c /I..\ENET\INCLUDE /I..\INCLUDE /I..\ENGINE /I..\FPSGAME /I..\SHARED /Zi /nologo /W3 /WX- /diagnostics:classic /Od /D WIN32 /D _DEBUG /D _WINDOWS /D _USING_V110_SDK71_ /D _MBCS /Gm- /EHa /RTCs /MTd /GS /fp:fast /Zc:wchar_t /Zc:forScope /Zc:inline /Fo".\DEBUG64\\" /Fd".\DEBUG64\VC141.PDB" /Gd /TP C:\USERS\JACOB\CARDBOARD-ENGINE\CARDBOARD\SRC\SHARED\GLEMU.CPP
^C:\USERS\JACOB\CARDBOARD-ENGINE\CARDBOARD\SRC\SHARED\STREAM.CPP
/c /I..\ENET\INCLUDE /I..\INCLUDE /I..\ENGINE /I..\FPSGAME /I..\SHARED /Zi /nologo /W3 /WX- /diagnostics:classic /Od /D WIN32 /D _DEBUG /D _WINDOWS /D _USING_V110_SDK71_ /D _MBCS /Gm- /EHa /RTCs /MTd /GS /fp:fast /Zc:wchar_t /Zc:forScope /Zc:inline /Fo".\DEBUG64\\" /Fd".\DEBUG64\VC141.PDB" /Gd /TP C:\USERS\JACOB\CARDBOARD-ENGINE\CARDBOARD\SRC\SHARED\STREAM.CPP
^C:\USERS\JACOB\CARDBOARD-ENGINE\CARDBOARD\SRC\SHARED\TOOLS.CPP
/c /I..\ENET\INCLUDE /I..\INCLUDE /I..\ENGINE /I..\FPSGAME /I..\SHARED /Zi /nologo /W3 /WX- /diagnostics:classic /Od /D WIN32 /D _DEBUG /D _WINDOWS /D _USING_V110_SDK71_ /D _MBCS /Gm- /EHa /RTCs /MTd /GS /fp:fast /Zc:wchar_t /Zc:forScope /Zc:inline /Fo".\DEBUG64\\" /Fd".\DEBUG64\VC141.PDB" /Gd /TP C:\USERS\JACOB\CARDBOARD-ENGINE\CARDBOARD\SRC\SHARED\TOOLS.CPP
^C:\USERS\JACOB\CARDBOARD-ENGINE\CARDBOARD\SRC\SHARED\ZIP.CPP
/c /I..\ENET\INCLUDE /I..\INCLUDE /I..\ENGINE /I..\FPSGAME /I..\SHARED /Zi /nologo /W3 /WX- /diagnostics:classic /Od /D WIN32 /D _DEBUG /D _WINDOWS /D _USING_V110_SDK71_ /D _MBCS /Gm- /EHa /RTCs /MTd /GS /fp:fast /Zc:wchar_t /Zc:forScope /Zc:inline /Fo".\DEBUG64\\" /Fd".\DEBUG64\VC141.PDB" /Gd /TP C:\USERS\JACOB\CARDBOARD-ENGINE\CARDBOARD\SRC\SHARED\ZIP.CPP
^C:\USERS\JACOB\CARDBOARD-ENGINE\CARDBOARD\SRC\FPSGAME\CLIENT.CPP
/c /I..\ENET\INCLUDE /I..\INCLUDE /I..\ENGINE /I..\FPSGAME /I..\SHARED /Zi /nologo /W3 /WX- /diagnostics:classic /Od /D WIN32 /D _DEBUG /D _WINDOWS /D _USING_V110_SDK71_ /D _MBCS /Gm- /EHa /RTCs /MTd /GS /fp:fast /Zc:wchar_t /Zc:forScope /Zc:inline /Fo".\DEBUG64\CLIENT1.OBJ" /Fd".\DEBUG64\VC141.PDB" /Gd /TP C:\USERS\JACOB\CARDBOARD-ENGINE\CARDBOARD\SRC\FPSGAME\CLIENT.CPP
^C:\USERS\JACOB\CARDBOARD-ENGINE\CARDBOARD\SRC\FPSGAME\SERVER.CPP
/c /I..\ENET\INCLUDE /I..\INCLUDE /I..\ENGINE /I..\FPSGAME /I..\SHARED /Zi /nologo /W3 /WX- /diagnostics:classic /Od /D WIN32 /D _DEBUG /D _WINDOWS /D _USING_V110_SDK71_ /D _MBCS /Gm- /EHa /RTCs /MTd /GS /fp:fast /Zc:wchar_t /Zc:forScope /Zc:inline /Fo".\DEBUG64\SERVER1.OBJ" /Fd".\DEBUG64\VC141.PDB" /Gd /TP C:\USERS\JACOB\CARDBOARD-ENGINE\CARDBOARD\SRC\FPSGAME\SERVER.CPP
^C:\USERS\JACOB\CARDBOARD-ENGINE\CARDBOARD\SRC\CARDSTOCK\TEST.CPP
/c /I..\ENET\INCLUDE /I..\INCLUDE /I..\ENGINE /I..\FPSGAME /I..\SHARED /Zi /nologo /W3 /WX- /diagnostics:classic /Od /D WIN32 /D _DEBUG /D _WINDOWS /D _USING_V110_SDK71_ /D _MBCS /Gm- /EHa /RTCs /MTd /GS /fp:fast /Zc:wchar_t /Zc:forScope /Zc:inline /Fo".\DEBUG64\\" /Fd".\DEBUG64\VC141.PDB" /Gd /TP C:\USERS\JACOB\CARDBOARD-ENGINE\CARDBOARD\SRC\CARDSTOCK\TEST.CPP
^C:\USERS\JACOB\CARDBOARD-ENGINE\CARDBOARD\SRC\CARDSTOCK\LUAINTERFACE.CPP
/c /I..\ENET\INCLUDE /I..\INCLUDE /I..\ENGINE /I..\FPSGAME /I..\SHARED /Zi /nologo /W3 /WX- /diagnostics:classic /Od /D WIN32 /D _DEBUG /D _WINDOWS /D _USING_V110_SDK71_ /D _MBCS /Gm- /EHa /RTCs /MTd /GS /fp:fast /Zc:wchar_t /Zc:forScope /Zc:inline /Fo".\DEBUG64\\" /Fd".\DEBUG64\VC141.PDB" /Gd /TP C:\USERS\JACOB\CARDBOARD-ENGINE\CARDBOARD\SRC\CARDSTOCK\LUAINTERFACE.CPP
